run_id,policy,file_size,client_id,operation,op_time,nb_clients
0,ec-RS-6-3-1024k,268435456,0,get,4.77361702919,1
0,ec-RS-6-3-1024k,1073741824,0,get,5.82396602631,1
0,ec-RS-6-3-1024k,5368709120,0,get,12.977645874,1
0,ec-RS-6-3-1024k,10737418240,0,get,19.7781469822,1
0,ec-RS-6-3-1024k,21474836480,0,get,35.5315361023,1
0,ec-RS-6-3-1024k,268435456,3,get,3.90051794052,5
0,ec-RS-6-3-1024k,268435456,4,get,3.89900398254,5
0,ec-RS-6-3-1024k,268435456,0,get,3.93238592148,5
0,ec-RS-6-3-1024k,268435456,1,get,3.93088102341,5
0,ec-RS-6-3-1024k,268435456,2,get,3.9483590126,5
0,ec-RS-6-3-1024k,1073741824,1,get,5.14940786362,5
0,ec-RS-6-3-1024k,1073741824,0,get,5.15168499947,5
0,ec-RS-6-3-1024k,1073741824,2,get,5.15064001083,5
0,ec-RS-6-3-1024k,1073741824,3,get,5.17129302025,5
0,ec-RS-6-3-1024k,1073741824,4,get,5.17146778107,5
0,ec-RS-6-3-1024k,5368709120,1,get,12.5774819851,5
0,ec-RS-6-3-1024k,5368709120,2,get,12.5973398685,5
0,ec-RS-6-3-1024k,5368709120,0,get,12.6340339184,5
0,ec-RS-6-3-1024k,5368709120,3,get,12.6484980583,5
0,ec-RS-6-3-1024k,5368709120,4,get,12.6484630108,5
0,ec-RS-6-3-1024k,10737418240,1,get,21.0971500874,5
0,ec-RS-6-3-1024k,10737418240,3,get,21.1001708508,5
0,ec-RS-6-3-1024k,10737418240,2,get,21.1499340534,5
0,ec-RS-6-3-1024k,10737418240,4,get,21.1468350887,5
0,ec-RS-6-3-1024k,10737418240,0,get,21.2019679546,5
0,ec-RS-6-3-1024k,21474836480,0,get,39.1413180828,5
0,ec-RS-6-3-1024k,21474836480,4,get,39.1651771069,5
0,ec-RS-6-3-1024k,21474836480,1,get,39.1699128151,5
0,ec-RS-6-3-1024k,21474836480,2,get,39.1896119118,5
0,ec-RS-6-3-1024k,21474836480,3,get,39.1889071465,5
0,ec-RS-6-3-1024k,268435456,4,get,4.09027194977,10
0,ec-RS-6-3-1024k,268435456,1,get,4.13644504547,10
0,ec-RS-6-3-1024k,268435456,5,get,4.11035013199,10
0,ec-RS-6-3-1024k,268435456,3,get,4.13949298859,10
0,ec-RS-6-3-1024k,268435456,0,get,4.15753006935,10
0,ec-RS-6-3-1024k,268435456,2,get,4.16377902031,10
0,ec-RS-6-3-1024k,268435456,9,get,4.19866991043,10
0,ec-RS-6-3-1024k,268435456,8,get,4.24935102463,10
0,ec-RS-6-3-1024k,268435456,6,get,4.31474590302,10
0,ec-RS-6-3-1024k,268435456,7,get,4.35659193993,10
0,ec-RS-6-3-1024k,1073741824,0,get,5.4231338501,10
0,ec-RS-6-3-1024k,1073741824,5,get,5.41840314865,10
0,ec-RS-6-3-1024k,1073741824,2,get,5.42259502411,10
0,ec-RS-6-3-1024k,1073741824,1,get,5.42451620102,10
0,ec-RS-6-3-1024k,1073741824,3,get,5.42162704468,10
0,ec-RS-6-3-1024k,1073741824,4,get,5.42166113853,10
0,ec-RS-6-3-1024k,1073741824,6,get,5.53046107292,10
0,ec-RS-6-3-1024k,1073741824,7,get,5.62788295746,10
0,ec-RS-6-3-1024k,1073741824,8,get,5.67663002014,10
0,ec-RS-6-3-1024k,1073741824,9,get,5.67404699326,10
0,ec-RS-6-3-1024k,5368709120,0,get,12.5835061073,10
0,ec-RS-6-3-1024k,5368709120,2,get,12.5819330215,10
0,ec-RS-6-3-1024k,5368709120,3,get,12.5999810696,10
0,ec-RS-6-3-1024k,5368709120,4,get,12.6078388691,10
0,ec-RS-6-3-1024k,5368709120,5,get,12.6077439785,10
0,ec-RS-6-3-1024k,5368709120,6,get,12.6080989838,10
0,ec-RS-6-3-1024k,5368709120,9,get,12.5755839348,10
0,ec-RS-6-3-1024k,5368709120,1,get,12.6311118603,10
0,ec-RS-6-3-1024k,5368709120,7,get,12.6533989906,10
0,ec-RS-6-3-1024k,5368709120,8,get,12.6332352161,10
0,ec-RS-6-3-1024k,10737418240,4,get,20.8099999428,10
0,ec-RS-6-3-1024k,10737418240,7,get,20.8050611019,10
0,ec-RS-6-3-1024k,10737418240,3,get,20.8631010056,10
0,ec-RS-6-3-1024k,10737418240,0,get,20.8805229664,10
0,ec-RS-6-3-1024k,10737418240,6,get,20.8583660126,10
0,ec-RS-6-3-1024k,10737418240,5,get,20.9101388454,10
0,ec-RS-6-3-1024k,10737418240,8,get,20.9012219906,10
0,ec-RS-6-3-1024k,10737418240,9,get,20.9045898914,10
0,ec-RS-6-3-1024k,10737418240,2,get,20.9580988884,10
0,ec-RS-6-3-1024k,10737418240,1,get,21.0438520908,10
0,ec-RS-6-3-1024k,21474836480,3,get,38.6124567986,10
0,ec-RS-6-3-1024k,21474836480,6,get,38.5894851685,10
0,ec-RS-6-3-1024k,21474836480,4,get,38.6143488884,10
0,ec-RS-6-3-1024k,21474836480,8,get,38.5856130123,10
0,ec-RS-6-3-1024k,21474836480,0,get,38.6625099182,10
0,ec-RS-6-3-1024k,21474836480,1,get,38.6673629284,10
0,ec-RS-6-3-1024k,21474836480,5,get,38.6644570827,10
0,ec-RS-6-3-1024k,21474836480,2,get,38.7167129517,10
0,ec-RS-6-3-1024k,21474836480,7,get,38.6870701313,10
0,ec-RS-6-3-1024k,21474836480,9,get,38.6818981171,10
0,ec-RS-6-3-1024k,268435456,0,get,4.58136796951,20
0,ec-RS-6-3-1024k,268435456,1,get,4.57539200783,20
0,ec-RS-6-3-1024k,268435456,3,get,4.62116289139,20
0,ec-RS-6-3-1024k,268435456,6,get,4.59608697891,20
0,ec-RS-6-3-1024k,268435456,5,get,4.66772198677,20
0,ec-RS-6-3-1024k,268435456,2,get,4.67804694176,20
0,ec-RS-6-3-1024k,268435456,4,get,4.7218439579,20
0,ec-RS-6-3-1024k,268435456,8,get,4.73907804489,20
0,ec-RS-6-3-1024k,268435456,7,get,4.74473690987,20
0,ec-RS-6-3-1024k,268435456,9,get,4.83313298225,20
0,ec-RS-6-3-1024k,268435456,11,get,4.83459210396,20
0,ec-RS-6-3-1024k,268435456,10,get,4.88870215416,20
0,ec-RS-6-3-1024k,268435456,12,get,5.02461481094,20
0,ec-RS-6-3-1024k,268435456,13,get,5.07570314407,20
0,ec-RS-6-3-1024k,268435456,15,get,5.07617092133,20
0,ec-RS-6-3-1024k,268435456,14,get,5.09837698936,20
0,ec-RS-6-3-1024k,268435456,16,get,5.11960792542,20
0,ec-RS-6-3-1024k,268435456,18,get,5.21617102623,20
0,ec-RS-6-3-1024k,268435456,19,get,5.31280398369,20
0,ec-RS-6-3-1024k,268435456,17,get,5.31767010689,20
0,ec-RS-6-3-1024k,1073741824,14,get,6.55385398865,20
0,ec-RS-6-3-1024k,1073741824,2,get,6.78436303139,20
0,ec-RS-6-3-1024k,1073741824,7,get,6.87576293945,20
0,ec-RS-6-3-1024k,1073741824,0,get,6.89099502563,20
0,ec-RS-6-3-1024k,1073741824,4,get,6.8852648735,20
0,ec-RS-6-3-1024k,1073741824,18,get,6.85260415077,20
0,ec-RS-6-3-1024k,1073741824,5,get,6.93059301376,20
0,ec-RS-6-3-1024k,1073741824,19,get,6.90142893791,20
0,ec-RS-6-3-1024k,1073741824,9,get,6.97151899338,20
0,ec-RS-6-3-1024k,1073741824,1,get,6.9876229763,20
0,ec-RS-6-3-1024k,1073741824,3,get,7.02264094353,20
0,ec-RS-6-3-1024k,1073741824,6,get,7.27603507042,20
0,ec-RS-6-3-1024k,1073741824,8,get,7.27482676506,20
0,ec-RS-6-3-1024k,1073741824,13,get,7.41262793541,20
0,ec-RS-6-3-1024k,1073741824,15,get,7.45296001434,20
0,ec-RS-6-3-1024k,1073741824,16,get,7.45418095589,20
0,ec-RS-6-3-1024k,1073741824,12,get,7.51379203796,20
0,ec-RS-6-3-1024k,1073741824,11,get,7.56738591194,20
0,ec-RS-6-3-1024k,1073741824,17,get,7.55357813835,20
0,ec-RS-6-3-1024k,1073741824,10,get,7.66944694519,20
0,ec-RS-6-3-1024k,5368709120,2,get,17.7593650818,20
0,ec-RS-6-3-1024k,5368709120,17,get,18.2083301544,20
0,ec-RS-6-3-1024k,5368709120,7,get,18.3905899525,20
0,ec-RS-6-3-1024k,5368709120,14,get,18.4398708344,20
0,ec-RS-6-3-1024k,5368709120,8,get,18.638833046,20
0,ec-RS-6-3-1024k,5368709120,11,get,18.658780098,20
0,ec-RS-6-3-1024k,5368709120,4,get,18.8565030098,20
0,ec-RS-6-3-1024k,5368709120,13,get,18.7961931229,20
0,ec-RS-6-3-1024k,5368709120,9,get,18.8463451862,20
0,ec-RS-6-3-1024k,5368709120,5,get,18.9014310837,20
0,ec-RS-6-3-1024k,5368709120,6,get,18.9242269993,20
0,ec-RS-6-3-1024k,5368709120,0,get,18.9437170029,20
0,ec-RS-6-3-1024k,5368709120,16,get,18.9365389347,20
0,ec-RS-6-3-1024k,5368709120,12,get,19.0543370247,20
0,ec-RS-6-3-1024k,5368709120,15,get,19.0387330055,20
0,ec-RS-6-3-1024k,5368709120,10,get,19.1055970192,20
0,ec-RS-6-3-1024k,5368709120,3,get,19.5079598427,20
0,ec-RS-6-3-1024k,5368709120,19,get,19.455876112,20
0,ec-RS-6-3-1024k,5368709120,1,get,19.7143368721,20
0,ec-RS-6-3-1024k,5368709120,18,get,19.6605811119,20
0,ec-RS-6-3-1024k,10737418240,17,get,32.6788449287,20
0,ec-RS-6-3-1024k,10737418240,1,get,32.7900338173,20
0,ec-RS-6-3-1024k,10737418240,11,get,32.7714369297,20
0,ec-RS-6-3-1024k,10737418240,15,get,32.8651888371,20
0,ec-RS-6-3-1024k,10737418240,8,get,32.9082260132,20
0,ec-RS-6-3-1024k,10737418240,3,get,32.9715240002,20
0,ec-RS-6-3-1024k,10737418240,6,get,32.9687590599,20
0,ec-RS-6-3-1024k,10737418240,12,get,33.0209929943,20
0,ec-RS-6-3-1024k,10737418240,2,get,33.0892720222,20
0,ec-RS-6-3-1024k,10737418240,4,get,33.1195189953,20
0,ec-RS-6-3-1024k,10737418240,9,get,33.1143610477,20
0,ec-RS-6-3-1024k,10737418240,13,get,33.1669969559,20
0,ec-RS-6-3-1024k,10737418240,18,get,33.174421072,20
0,ec-RS-6-3-1024k,10737418240,16,get,33.2479469776,20
0,ec-RS-6-3-1024k,10737418240,5,get,33.3167939186,20
0,ec-RS-6-3-1024k,10737418240,0,get,33.3931469917,20
0,ec-RS-6-3-1024k,10737418240,7,get,33.4129629135,20
0,ec-RS-6-3-1024k,10737418240,14,get,33.4453480244,20
0,ec-RS-6-3-1024k,10737418240,19,get,33.5732719898,20
0,ec-RS-6-3-1024k,10737418240,10,get,33.6641819477,20
0,ec-RS-6-3-1024k,21474836480,10,get,55.6707921028,20
0,ec-RS-6-3-1024k,21474836480,19,get,55.8480238914,20
0,ec-RS-6-3-1024k,21474836480,8,get,56.5391418934,20
0,ec-RS-6-3-1024k,21474836480,12,get,56.7140238285,20
0,ec-RS-6-3-1024k,21474836480,11,get,57.167760849,20
0,ec-RS-6-3-1024k,21474836480,15,get,57.9548690319,20
0,ec-RS-6-3-1024k,21474836480,1,get,58.1070079803,20
0,ec-RS-6-3-1024k,21474836480,17,get,57.9055719376,20
0,ec-RS-6-3-1024k,21474836480,6,get,58.2605500221,20
0,ec-RS-6-3-1024k,21474836480,0,get,58.4141700268,20
0,ec-RS-6-3-1024k,21474836480,9,get,58.3759078979,20
0,ec-RS-6-3-1024k,21474836480,14,get,58.3616638184,20
0,ec-RS-6-3-1024k,21474836480,5,get,60.0677559376,20
0,ec-RS-6-3-1024k,21474836480,16,get,60.7611699104,20
0,ec-RS-6-3-1024k,21474836480,18,get,61.054227829,20
0,ec-RS-6-3-1024k,21474836480,7,get,61.5674870014,20
0,ec-RS-6-3-1024k,21474836480,13,get,62.2118079662,20
0,ec-RS-6-3-1024k,21474836480,4,get,63.024130106,20
0,ec-RS-6-3-1024k,21474836480,2,get,64.7188739777,20
0,ec-RS-6-3-1024k,21474836480,3,get,64.9251999855,20
0,ec-RS-6-3-1024k,268435456,0,get,5.71102809906,40
0,ec-RS-6-3-1024k,268435456,1,get,5.70846390724,40
0,ec-RS-6-3-1024k,268435456,3,get,5.7558028698,40
0,ec-RS-6-3-1024k,268435456,4,get,5.7566587925,40
0,ec-RS-6-3-1024k,268435456,2,get,5.86443710327,40
0,ec-RS-6-3-1024k,268435456,5,get,5.89692878723,40
0,ec-RS-6-3-1024k,268435456,6,get,5.89767193794,40
0,ec-RS-6-3-1024k,268435456,7,get,5.94365787506,40
0,ec-RS-6-3-1024k,268435456,8,get,6.04115986824,40
0,ec-RS-6-3-1024k,268435456,9,get,6.10342907906,40
0,ec-RS-6-3-1024k,268435456,13,get,6.07006406784,40
0,ec-RS-6-3-1024k,268435456,10,get,6.23626685143,40
0,ec-RS-6-3-1024k,268435456,11,get,6.20825099945,40
0,ec-RS-6-3-1024k,268435456,15,get,6.20999908447,40
0,ec-RS-6-3-1024k,268435456,14,get,6.2592689991,40
0,ec-RS-6-3-1024k,268435456,16,get,6.25809884071,40
0,ec-RS-6-3-1024k,268435456,12,get,6.3661968708,40
0,ec-RS-6-3-1024k,268435456,20,get,6.42493510246,40
0,ec-RS-6-3-1024k,268435456,18,get,6.45475792885,40
0,ec-RS-6-3-1024k,268435456,17,get,6.55673909187,40
0,ec-RS-6-3-1024k,268435456,22,get,6.51692199707,40
0,ec-RS-6-3-1024k,268435456,19,get,6.65297007561,40
0,ec-RS-6-3-1024k,268435456,21,get,6.67414498329,40
0,ec-RS-6-3-1024k,268435456,23,get,6.81476998329,40
0,ec-RS-6-3-1024k,268435456,24,get,6.86612606049,40
0,ec-RS-6-3-1024k,268435456,27,get,6.90813398361,40
0,ec-RS-6-3-1024k,268435456,26,get,6.90994000435,40
0,ec-RS-6-3-1024k,268435456,25,get,7.0128390789,40
0,ec-RS-6-3-1024k,268435456,28,get,7.03599119186,40
0,ec-RS-6-3-1024k,268435456,29,get,7.06136989594,40
0,ec-RS-6-3-1024k,268435456,30,get,7.17535305023,40
0,ec-RS-6-3-1024k,268435456,31,get,7.19423079491,40
0,ec-RS-6-3-1024k,268435456,32,get,7.24327898026,40
0,ec-RS-6-3-1024k,268435456,33,get,7.29512310028,40
0,ec-RS-6-3-1024k,268435456,34,get,7.3355410099,40
0,ec-RS-6-3-1024k,268435456,35,get,7.38055515289,40
0,ec-RS-6-3-1024k,268435456,36,get,7.43067002296,40
0,ec-RS-6-3-1024k,268435456,37,get,7.48024106026,40
0,ec-RS-6-3-1024k,268435456,38,get,7.52730607986,40
0,ec-RS-6-3-1024k,268435456,39,get,7.59572386742,40
0,ec-RS-6-3-1024k,1073741824,13,get,7.96818685532,40
0,ec-RS-6-3-1024k,1073741824,14,get,8.31220006943,40
0,ec-RS-6-3-1024k,1073741824,2,get,8.55937385559,40
0,ec-RS-6-3-1024k,1073741824,9,get,8.80450201035,40
0,ec-RS-6-3-1024k,1073741824,12,get,9.05767989159,40
0,ec-RS-6-3-1024k,1073741824,15,get,9.36327290535,40
0,ec-RS-6-3-1024k,1073741824,5,get,9.45830106735,40
0,ec-RS-6-3-1024k,1073741824,1,get,9.52261018753,40
0,ec-RS-6-3-1024k,1073741824,0,get,9.58802199364,40
0,ec-RS-6-3-1024k,1073741824,16,get,9.6603281498,40
0,ec-RS-6-3-1024k,1073741824,4,get,9.76211285591,40
0,ec-RS-6-3-1024k,1073741824,17,get,9.86115288734,40
0,ec-RS-6-3-1024k,1073741824,8,get,10.0892620087,40
0,ec-RS-6-3-1024k,1073741824,7,get,10.1021652222,40
0,ec-RS-6-3-1024k,1073741824,26,get,10.0007660389,40
0,ec-RS-6-3-1024k,1073741824,3,get,10.2171740532,40
0,ec-RS-6-3-1024k,1073741824,6,get,10.3101980686,40
0,ec-RS-6-3-1024k,1073741824,35,get,10.3296558857,40
0,ec-RS-6-3-1024k,1073741824,10,get,10.5293610096,40
0,ec-RS-6-3-1024k,1073741824,11,get,10.5250849724,40
0,ec-RS-6-3-1024k,1073741824,19,get,10.7560451031,40
0,ec-RS-6-3-1024k,1073741824,18,get,10.8037397861,40
0,ec-RS-6-3-1024k,1073741824,29,get,10.7268941402,40
0,ec-RS-6-3-1024k,1073741824,36,get,10.7698941231,40
0,ec-RS-6-3-1024k,1073741824,33,get,10.8095350266,40
0,ec-RS-6-3-1024k,1073741824,30,get,10.8223869801,40
0,ec-RS-6-3-1024k,1073741824,23,get,10.9435219765,40
0,ec-RS-6-3-1024k,1073741824,22,get,10.9964039326,40
0,ec-RS-6-3-1024k,1073741824,37,get,10.9199950695,40
0,ec-RS-6-3-1024k,1073741824,28,get,11.0466401577,40
0,ec-RS-6-3-1024k,1073741824,32,get,11.0098721981,40
0,ec-RS-6-3-1024k,1073741824,31,get,11.0205609798,40
0,ec-RS-6-3-1024k,1073741824,20,get,11.120675087,40
0,ec-RS-6-3-1024k,1073741824,25,get,11.1527581215,40
0,ec-RS-6-3-1024k,1073741824,24,get,11.3056340218,40
0,ec-RS-6-3-1024k,1073741824,21,get,11.4028589725,40
0,ec-RS-6-3-1024k,1073741824,39,get,11.3144230843,40
0,ec-RS-6-3-1024k,1073741824,34,get,11.3585391045,40
0,ec-RS-6-3-1024k,1073741824,27,get,11.5970418453,40
0,ec-RS-6-3-1024k,1073741824,38,get,11.5670638084,40
0,ec-RS-6-3-1024k,5368709120,11,get,21.1605648994,40
0,ec-RS-6-3-1024k,5368709120,12,get,21.5547158718,40
0,ec-RS-6-3-1024k,5368709120,14,get,23.9504549503,40
0,ec-RS-6-3-1024k,5368709120,8,get,25.2008090019,40
0,ec-RS-6-3-1024k,5368709120,10,get,25.3196020126,40
0,ec-RS-6-3-1024k,5368709120,19,get,26.1334459782,40
0,ec-RS-6-3-1024k,5368709120,7,get,27.1176040173,40
0,ec-RS-6-3-1024k,5368709120,29,get,27.5413241386,40
0,ec-RS-6-3-1024k,5368709120,18,get,27.7401769161,40
0,ec-RS-6-3-1024k,5368709120,0,get,29.5235240459,40
0,ec-RS-6-3-1024k,5368709120,28,get,29.4914221764,40
0,ec-RS-6-3-1024k,5368709120,37,get,29.4897999763,40
0,ec-RS-6-3-1024k,5368709120,27,get,29.7455210686,40
0,ec-RS-6-3-1024k,5368709120,24,get,29.9542760849,40
0,ec-RS-6-3-1024k,5368709120,26,get,30.5955491066,40
0,ec-RS-6-3-1024k,5368709120,9,get,30.752507925,40
0,ec-RS-6-3-1024k,5368709120,32,get,30.6376409531,40
0,ec-RS-6-3-1024k,5368709120,16,get,30.7453320026,40
0,ec-RS-6-3-1024k,5368709120,17,get,30.9447219372,40
0,ec-RS-6-3-1024k,5368709120,20,get,31.0369069576,40
0,ec-RS-6-3-1024k,5368709120,2,get,31.114759922,40
0,ec-RS-6-3-1024k,5368709120,34,get,30.9517889023,40
0,ec-RS-6-3-1024k,5368709120,5,get,31.1584100723,40
0,ec-RS-6-3-1024k,5368709120,15,get,31.1962549686,40
0,ec-RS-6-3-1024k,5368709120,25,get,31.1475298405,40
0,ec-RS-6-3-1024k,5368709120,4,get,31.3054051399,40
0,ec-RS-6-3-1024k,5368709120,13,get,31.2517621517,40
0,ec-RS-6-3-1024k,5368709120,21,get,31.2810928822,40
0,ec-RS-6-3-1024k,5368709120,22,get,31.3320829868,40
0,ec-RS-6-3-1024k,5368709120,30,get,31.2857990265,40
0,ec-RS-6-3-1024k,5368709120,31,get,31.3848128319,40
0,ec-RS-6-3-1024k,5368709120,3,get,31.5176439285,40
0,ec-RS-6-3-1024k,5368709120,33,get,31.403801918,40
0,ec-RS-6-3-1024k,5368709120,23,get,31.6776201725,40
0,ec-RS-6-3-1024k,5368709120,6,get,31.8042690754,40
0,ec-RS-6-3-1024k,5368709120,1,get,31.9162871838,40
0,ec-RS-6-3-1024k,5368709120,39,get,31.7862541676,40
0,ec-RS-6-3-1024k,5368709120,38,get,31.8888409138,40
0,ec-RS-6-3-1024k,5368709120,36,get,31.9458670616,40
0,ec-RS-6-3-1024k,5368709120,35,get,32.4952688217,40
0,ec-RS-6-3-1024k,10737418240,26,get,50.3986032009,40
0,ec-RS-6-3-1024k,10737418240,13,get,50.5527968407,40
0,ec-RS-6-3-1024k,10737418240,16,get,51.3474030495,40
0,ec-RS-6-3-1024k,10737418240,23,get,52.1619699001,40
0,ec-RS-6-3-1024k,10737418240,29,get,52.2409968376,40
0,ec-RS-6-3-1024k,10737418240,1,get,52.3493080139,40
0,ec-RS-6-3-1024k,10737418240,8,get,52.4915201664,40
0,ec-RS-6-3-1024k,10737418240,12,get,52.5670540333,40
0,ec-RS-6-3-1024k,10737418240,38,get,52.5181469917,40
0,ec-RS-6-3-1024k,10737418240,32,get,52.8779628277,40
0,ec-RS-6-3-1024k,10737418240,35,get,52.9220819473,40
0,ec-RS-6-3-1024k,10737418240,24,get,53.054240942,40
0,ec-RS-6-3-1024k,10737418240,15,get,53.2020010948,40
0,ec-RS-6-3-1024k,10737418240,34,get,53.275439024,40
0,ec-RS-6-3-1024k,10737418240,7,get,53.4926700592,40
0,ec-RS-6-3-1024k,10737418240,3,get,53.5456650257,40
0,ec-RS-6-3-1024k,10737418240,30,get,53.4889431,40
0,ec-RS-6-3-1024k,10737418240,28,get,53.5450758934,40
0,ec-RS-6-3-1024k,10737418240,17,get,53.6465110779,40
0,ec-RS-6-3-1024k,10737418240,21,get,53.8149871826,40
0,ec-RS-6-3-1024k,10737418240,22,get,53.9650530815,40
0,ec-RS-6-3-1024k,10737418240,25,get,54.3013429642,40
0,ec-RS-6-3-1024k,10737418240,4,get,54.7987110615,40
0,ec-RS-6-3-1024k,10737418240,11,get,55.3155250549,40
0,ec-RS-6-3-1024k,10737418240,14,get,55.6085259914,40
0,ec-RS-6-3-1024k,10737418240,33,get,55.6987211704,40
0,ec-RS-6-3-1024k,10737418240,5,get,56.1395688057,40
0,ec-RS-6-3-1024k,10737418240,0,get,56.3013410568,40
0,ec-RS-6-3-1024k,10737418240,37,get,56.2677640915,40
0,ec-RS-6-3-1024k,10737418240,18,get,56.8510620594,40
0,ec-RS-6-3-1024k,10737418240,39,get,56.7685530186,40
0,ec-RS-6-3-1024k,10737418240,10,get,57.4900701046,40
0,ec-RS-6-3-1024k,10737418240,19,get,58.0018770695,40
0,ec-RS-6-3-1024k,10737418240,31,get,58.1543939114,40
0,ec-RS-6-3-1024k,10737418240,20,get,58.3163030148,40
0,ec-RS-6-3-1024k,10737418240,9,get,58.9412169456,40
0,ec-RS-6-3-1024k,10737418240,27,get,59.2989149094,40
0,ec-RS-6-3-1024k,10737418240,2,get,59.5500590801,40
0,ec-RS-6-3-1024k,10737418240,36,get,59.8214190006,40
0,ec-RS-6-3-1024k,10737418240,6,get,59.9977738857,40
0,ec-RS-6-3-1024k,21474836480,12,get,99.2107291222,40
0,ec-RS-6-3-1024k,21474836480,34,get,99.9628901482,40
0,ec-RS-6-3-1024k,21474836480,37,get,99.9707159996,40
0,ec-RS-6-3-1024k,21474836480,16,get,100.914430141,40
0,ec-RS-6-3-1024k,21474836480,38,get,100.77276516,40
0,ec-RS-6-3-1024k,21474836480,21,get,101.076400995,40
0,ec-RS-6-3-1024k,21474836480,11,get,101.215744019,40
0,ec-RS-6-3-1024k,21474836480,20,get,101.338190794,40
0,ec-RS-6-3-1024k,21474836480,27,get,101.284868002,40
0,ec-RS-6-3-1024k,21474836480,10,get,101.618050098,40
0,ec-RS-6-3-1024k,21474836480,30,get,101.524180889,40
0,ec-RS-6-3-1024k,21474836480,29,get,101.528207064,40
0,ec-RS-6-3-1024k,21474836480,39,get,101.616187811,40
0,ec-RS-6-3-1024k,21474836480,23,get,101.775261879,40
0,ec-RS-6-3-1024k,21474836480,31,get,103.018627882,40
0,ec-RS-6-3-1024k,21474836480,24,get,103.171124935,40
0,ec-RS-6-3-1024k,21474836480,15,get,104.216114998,40
0,ec-RS-6-3-1024k,21474836480,14,get,104.227349997,40
0,ec-RS-6-3-1024k,21474836480,36,get,104.227596998,40
0,ec-RS-6-3-1024k,21474836480,18,get,104.76446104,40
0,ec-RS-6-3-1024k,21474836480,0,get,105.055275917,40
0,ec-RS-6-3-1024k,21474836480,3,get,106.066981077,40
0,ec-RS-6-3-1024k,21474836480,19,get,106.142002106,40
0,ec-RS-6-3-1024k,21474836480,13,get,106.235909939,40
0,ec-RS-6-3-1024k,21474836480,2,get,106.282182932,40
0,ec-RS-6-3-1024k,21474836480,32,get,106.221221924,40
0,ec-RS-6-3-1024k,21474836480,6,get,106.473752975,40
0,ec-RS-6-3-1024k,21474836480,25,get,106.678250074,40
0,ec-RS-6-3-1024k,21474836480,9,get,106.820918798,40
0,ec-RS-6-3-1024k,21474836480,35,get,106.713747025,40
0,ec-RS-6-3-1024k,21474836480,33,get,108.267252922,40
0,ec-RS-6-3-1024k,21474836480,22,get,109.278323889,40
0,ec-RS-6-3-1024k,21474836480,7,get,109.725518942,40
0,ec-RS-6-3-1024k,21474836480,26,get,110.325200081,40
0,ec-RS-6-3-1024k,21474836480,8,get,110.573428869,40
0,ec-RS-6-3-1024k,21474836480,28,get,110.688431978,40
0,ec-RS-6-3-1024k,21474836480,5,get,110.929595947,40
0,ec-RS-6-3-1024k,21474836480,4,get,110.982953787,40
0,ec-RS-6-3-1024k,21474836480,17,get,111.11940217,40
0,ec-RS-6-3-1024k,21474836480,1,get,111.872573137,40
