run_id,policy,job_name,submittedAt,launchedAt,finishedAt,hdfs_bytes_read,hdfs_bytes_written,file_bytes_read_map,file_bytes_read_reduce,file_bytes_written_map,file_bytes_written_reduce,total_launched_maps,total_launched_reduces,num_failed_maps,num_failed_reduces,num_killed_maps,num_killed_reduces,data_local_maps,rack_local_maps,other_local_maps,map_startTime,map_finishTime,reduce_startTime,reduce_finishTime
9,ec-RS-6-3-1024k,wordcount,1554652013852,1554652024067,1554652139316,43361273542,63996729,2575624130,1976662842,4463554295,1984061984,160,36,0,0,0,0,159,1,0,1554652026484,1554652128087,1554652130573,1554652139223
9,rep3,wordcount,1554652411121,1554652420997,1554652495693,42863477136,54452281,2573970843,1977707634,4466337113,1985106776,160,36,0,0,0,0,158,2,0,1554652423385,1554652484676,1554652487400,1554652495634
0,ec-RS-6-3-1024k,wordcount,1554636415526,1554636423983,1554636543719,43361273542,64558364,2575708291,1977228618,4464688669,1984627760,160,36,0,0,0,0,160,0,0,1554636426290,1554636532619,1554636535471,1554636543626
0,rep3,wordcount,1554636817371,1554636825841,1554636898321,42862854544,53114430,2573187641,1976518829,4464021834,1983917971,160,36,0,0,0,0,159,1,0,1554636828158,1554636887347,1554636890233,1554636898262
7,ec-RS-6-3-1024k,wordcount,1554648333684,1554648342687,1554648454189,43361273542,63729410,2575393542,1976456956,4463238726,1983856098,160,36,0,0,0,0,159,1,0,1554648345007,1554648443028,1554648445303,1554648454097
7,rep3,wordcount,1554648729426,1554648738282,1554648813888,42863554960,55112555,2574297274,1978334501,4467532311,1985733643,160,36,0,0,0,0,157,3,0,1554648740576,1554648802440,1554648804753,1554648813816
6,ec-RS-6-3-1024k,wordcount,1554646702601,1554646711868,1554646829543,43361273542,64599137,2575997060,1977269515,4464769311,1984668657,160,36,0,0,0,0,159,1,0,1554646714215,1554646818380,1554646821323,1554646829451
6,rep3,wordcount,1554647098163,1554647107515,1554647179147,42863243664,53181484,2573175887,1976430901,4463783858,1983830043,160,36,0,0,0,0,156,4,0,1554647109879,1554647168890,1554647170937,1554647179088
1,ec-RS-6-3-1024k,wordcount,1554638087267,1554638096631,1554638211442,43361273542,66248245,2576876382,1978931281,4468097905,1986330423,160,36,0,0,0,0,159,1,0,1554638098990,1554638199530,1554638202067,1554638211349
1,rep3,wordcount,1554638481675,1554638491085,1554638563623,42863165840,54289163,2573796527,1977507053,4465877199,1984906195,160,36,0,0,0,0,158,2,0,1554638493484,1554638551791,1554638554474,1554638563565
8,ec-RS-6-3-1024k,wordcount,1554650037570,1554650047221,1554650167447,43361273542,64850421,2576020001,1977523698,4465276988,1984922840,160,36,0,0,0,0,159,1,0,1554650049604,1554650156255,1554650158682,1554650167364
8,rep3,wordcount,1554650440335,1554650449348,1554650522881,42863165840,52815043,2572868411,1976025912,4462904876,1983425054,160,36,0,0,0,0,156,4,0,1554650451690,1554650511648,1554650513764,1554650522822
4,ec-RS-6-3-1024k,wordcount,1554643202780,1554643212192,1554643328950,43361273542,61609045,2574104265,1974320819,4458957526,1981719961,160,36,0,0,0,0,158,2,0,1554643214578,1554643318430,1554643320670,1554643328857
4,rep3,wordcount,1554643598916,1554643608012,1554643683562,42863165840,53883039,2573509904,1977135561,4465192769,1984534703,160,36,0,0,0,0,159,1,0,1554643610348,1554643673404,1554643675459,1554643683471
3,ec-RS-6-3-1024k,wordcount,1554641552237,1554641561984,1554641682237,43361273542,64941585,2576198367,1977908980,4466239225,1985308122,160,36,0,0,0,0,157,3,0,1554641564351,1554641670642,1554641673501,1554641682144
3,rep3,wordcount,1554641948204,1554641957548,1554642030141,42863010192,53801717,2573378315,1977053754,4465030251,1984452896,160,36,0,0,0,0,158,2,0,1554641959900,1554642019244,1554642021951,1554642030083
2,ec-RS-6-3-1024k,wordcount,1554639746808,1554639756544,1554639867299,43361273542,63208440,2574978269,1975931887,4462185483,1983331029,160,36,0,0,0,0,159,1,0,1554639758968,1554639856065,1554639858546,1554639867206
2,rep3,wordcount,1554640150275,1554640159390,1554640234153,42863321488,55174176,2574308361,1978432985,4467798326,1985832127,160,36,0,0,0,0,158,2,0,1554640161771,1554640223539,1554640225910,1554640234095
5,ec-RS-6-3-1024k,wordcount,1554645060567,1554645070599,1554645188857,43361273542,61807187,2574301648,1974752638,4459918266,1982151780,160,36,0,0,0,0,160,0,0,1554645073029,1554645177412,1554645180133,1554645188765
5,rep3,wordcount,1554645460404,1554645471009,1554645546543,42863243664,52968072,2573091071,1976216349,4463350884,1983615491,160,36,0,0,0,0,159,1,0,1554645473353,1554645534446,1554645537426,1554645546485
9,ec-RS-6-3-1024k,sorter,1554650851299,1554650859783,1554651142937,44171028672,42807842696,42862607736,42790362915,85613984056,42797774945,176,40,0,0,16,4,160,0,16,1554650862113,1554650954906,1554650926203,1554651142842
9,rep3,sorter,1554651429488,1554651437941,1554651693650,42812716000,42807792756,42862881360,42790309992,85613878210,42797722022,175,40,0,0,15,4,159,1,15,1554651440276,1554651523093,1554651482463,1554651693591
0,ec-RS-6-3-1024k,sorter,1554635236763,1554635245943,1554635525352,44171028692,42807842696,42862607736,42790362915,85613984056,42797774945,176,40,0,0,16,4,160,0,16,1554635248272,1554635336786,1554635308527,1554635525258
0,rep3,sorter,1554635827004,1554635835609,1554636094790,42812716000,42807792756,42862881360,42790309992,85613878210,42797722022,176,40,0,0,16,4,159,1,16,1554635837948,1554635943629,1554635883146,1554636094730
7,ec-RS-6-3-1024k,sorter,1554647516793,1554647525914,1554647629699,44156348656,42807842696,42862607736,42790362915,85613984056,42797774945,177,40,0,0,17,4,157,3,17,1554647528265,1554647622410,1554647592539,1554647629606
7,rep3,sorter,1554647915845,1554647924336,1554648039136,42812716000,42807792756,42862881360,42790309992,85613878210,42797722022,175,40,0,0,15,4,157,3,15,1554647926636,1554648022069,1554647965759,1554648039074
6,ec-RS-6-3-1024k,sorter,1554645876058,1554645885170,1554645998654,44160542940,42807842696,42862607736,42790362915,85613984056,42797774945,176,40,0,0,16,4,160,0,16,1554645887551,1554645989872,1554645961577,1554645998560
6,rep3,sorter,1554646291067,1554646300244,1554646401106,42812716000,42807792756,42862881360,42790309992,85613878210,42797722022,176,40,0,0,16,4,157,3,16,1554646302621,1554646386259,1554646345731,1554646401046
1,ec-RS-6-3-1024k,sorter,1554637229754,1554637238950,1554637345364,44147960036,42807842696,42862607736,42790362915,85613984056,42797774945,176,40,0,0,16,4,155,5,16,1554637241287,1554637338421,1554637310348,1554637345279
1,rep3,sorter,1554637626805,1554637636343,1554637769839,42812716000,42807792756,42862881360,42790309992,85613878210,42797722022,176,39,0,0,16,3,155,5,16,1554637638674,1554637748664,1554637682647,1554637769776
8,ec-RS-6-3-1024k,sorter,1554649149777,1554649159455,1554649262040,44158445804,42807842696,42862607736,42790362915,85613984056,42797774945,176,38,0,0,16,2,159,1,16,1554649161807,1554649254526,1554649226932,1554649261955
8,rep3,sorter,1554649570018,1554649579929,1554649724562,42812716000,42807792756,42862881360,42790309992,85613878210,42797722022,176,40,0,0,16,4,156,4,16,1554649582283,1554649700714,1554649630399,1554649724499
4,ec-RS-6-3-1024k,sorter,1554642371975,1554642381805,1554642478902,44160542912,42807842696,42862607736,42790362915,85613984056,42797774945,176,40,0,1,16,3,160,0,16,1554642384212,1554642470160,1554642442270,1554642478816
4,rep3,sorter,1554642767760,1554642777122,1554642900171,42812716000,42807792756,42862881360,42790309992,85613878210,42797722022,175,40,0,0,15,4,157,3,15,1554642779548,1554642887484,1554642822611,1554642900117
3,ec-RS-6-3-1024k,sorter,1554640569776,1554640579107,1554640676038,44162640124,42807842696,42862607736,42790362915,85613984056,42797774945,176,39,0,0,16,3,160,0,16,1554640581461,1554640668202,1554640638591,1554640675952
3,rep3,sorter,1554640965557,1554640974243,1554641229543,42812716000,42807792756,42862881360,42790309992,85613878210,42797722022,176,40,0,0,16,4,159,1,16,1554640976561,1554641084192,1554641018657,1554641229483
2,ec-RS-6-3-1024k,sorter,1554638827459,1554638837536,1554638977632,44160542952,42807842696,42862607736,42790362915,85613984056,42797774945,176,41,0,1,16,4,160,0,16,1554638839898,1554638927637,1554638899942,1554638977539
2,rep3,sorter,1554639284115,1554639293710,1554639429320,42812716000,42807792756,42862881360,42790309992,85613878210,42797722022,176,40,0,0,16,4,158,2,16,1554639296057,1554639409857,1554639340274,1554639429264
5,ec-RS-6-3-1024k,sorter,1554644019874,1554644028878,1554644306329,44158445788,42807842696,42862607736,42790362915,85613984056,42797774945,176,39,0,0,16,3,157,3,16,1554644031214,1554644119880,1554644091275,1554644306238
5,rep3,sorter,1554644595899,1554644605754,1554644740278,42812716000,42807792756,42862881360,42790309992,85613878210,42797722022,176,39,0,0,16,3,159,1,16,1554644608174,1554644726413,1554644651884,1554644740216
