run_id,policy,job_name,submittedAt,launchedAt,finishedAt,hdfs_bytes_read,hdfs_bytes_written,file_bytes_read_map,file_bytes_read_reduce,file_bytes_written_map,file_bytes_written_reduce,total_launched_maps,total_launched_reduces,num_killed_maps,num_killed_reduces,data_local_maps,rack_local_maps,other_local_maps,map_startTime,map_finishTime,reduce_startTime,reduce_finishTime
0,ec-RS-6-3-1024k,Create pagerank nodes,1553642043422,1553642050947,1553642067494,66684,532,0,1816,33178930,7426698,160,36,0,0,0,0,160,1553642053242,1553642064872,1553642061317,1553642067397
0,ec-RS-6-3-1024k,Pagerank_Stage2-2,1553642840666,1553642847319,1553643035759,64950551643,1570626386,59311450177,59225972899,118504383396,59233387485,252,36,0,0,252,0,0,1553642850449,1553642963124,1553642894612,1553643035659
0,ec-RS-6-3-1024k,Pagerank_Stage1-3,1553643038207,1553643043997,1553643266908,35454869718,64040725357,28451821791,29826381870,58261797510,29833798868,196,36,0,0,195,1,0,1553643046286,1553643107560,1553643081354,1553643266816
0,ec-RS-6-3-1024k,Pagerank_Stage2-1,1553642415940,1553642421043,1553642605800,60822854833,1571699507,53396934604,55098276089,108470101013,55105690675,252,36,0,0,252,0,0,1553642423278,1553642536271,1553642469414,1553642605709
0,ec-RS-6-3-1024k,Pagerank_Stage2-3,1553643269124,1553643275507,1553643461443,64946730049,1570550242,59307808191,59222151305,118496740208,59229565891,252,36,0,0,252,0,0,1553643277761,1553643389591,1553643322832,1553643461351
0,ec-RS-6-3-1024k,Pagerank_Stage1-2,1553642607841,1553642613345,1553642838458,35455942839,64044546951,28451821791,29827454991,58262870631,29834871989,196,36,0,0,196,0,0,1553642615627,1553642676914,1553642649700,1553642838366
0,ec-RS-6-3-1024k,Create pagerank links,1553642071939,1553642077660,1553642106269,66684,33884216300,0,0,33094290,0,160,0,0,0,0,0,160,1553642079898,1553642106183,0,0
0,ec-RS-6-3-1024k,Pagerank_Stage1-1,1553642167779,1553642176945,1553642413974,34735710650,59916850141,29125509949,29094644374,58195779234,29102061372,164,36,0,0,164,0,0,1553642179289,1553642264485,1553642227259,1553642413883
0,rep3,Create pagerank nodes,1553643708491,1553643717039,1553643732128,66684,532,0,1816,33178930,7426698,160,36,0,0,0,0,160,1553643719352,1553643730664,1553643727424,1553643732059
0,rep3,Pagerank_Stage1-3,1553644704638,1553644710131,1553644929339,35454867485,64040714716,28451821791,29826379637,58261795277,29833796635,196,36,0,0,189,7,0,1553644712416,1553644774902,1553644745471,1553644929280
0,rep3,Pagerank_Stage2-2,1553644505754,1553644510407,1553644702280,64045465027,1570624153,59311508028,59225971211,118504380020,59233385797,252,36,0,0,247,5,0,1553644512636,1553644620763,1553644558678,1553644702223
0,rep3,Pagerank_Stage1-2,1553644276200,1553644281862,1553644502936,35455942691,64044545263,28451821791,29827454843,58262870483,29834871841,196,36,0,0,191,5,0,1553644284138,1553644351492,1553644316183,1553644502871
0,rep3,Pagerank_Stage2-1,1553644079216,1553644088785,1553644274013,59917769905,1571699359,53396934604,55098276089,108470101013,55105690675,252,36,0,0,249,3,0,1553644091036,1553644205838,1553644136106,1553644273956
0,rep3,Pagerank_Stage2-3,1553644931498,1553644937244,1553645129218,64041634480,1570555628,59307790328,59222140664,118496718926,59229555250,252,36,0,0,250,2,0,1553644940012,1553645050023,1553644985699,1553645129160
0,rep3,Pagerank_Stage1-1,1553643853653,1553643862206,1553644076990,34723140026,59916850141,29125509949,29094644374,58195779234,29102061372,164,36,0,0,161,3,0,1553643864491,1553643943723,1553643911550,1553644076931
0,rep3,Create pagerank links,1553643737097,1553643742093,1553643772363,66684,33884216300,0,0,33094290,0,160,0,0,0,0,0,160,1553643744341,1553643772303,0,0
1,ec-RS-6-3-1024k,Create pagerank nodes,1553651108940,1553651116483,1553651135015,66684,532,0,1816,33178930,7426698,160,36,0,0,0,0,160,1553651119203,1553651130810,1553651127915,1553651133772
1,ec-RS-6-3-1024k,Pagerank_Stage2-2,1553651907003,1553651915139,1553652102463,64950535771,1570626112,59311284565,59225957027,118504351652,59233371613,252,36,0,0,252,0,0,1553651917646,1553652031485,1553651961493,1553652102372
1,ec-RS-6-3-1024k,Pagerank_Stage1-3,1553652104371,1553652109602,1553652333763,35454869444,64040658664,28451821791,29826381596,58261797236,29833798594,196,36,0,0,195,1,0,1553652111879,1553652174022,1553652154931,1553652333672
1,ec-RS-6-3-1024k,Pagerank_Stage2-1,1553651480173,1553651485515,1553651670234,60822854833,1571694768,53396934604,55098276089,108470101013,55105690675,252,36,0,0,252,0,0,1553651487807,1553651598864,1553651533837,1553651670152
1,ec-RS-6-3-1024k,Pagerank_Stage2-3,1553652336190,1553652341688,1553652534825,64946663356,1570545831,59307729719,59222084612,118496606822,59229499198,252,36,0,0,252,0,0,1553652344036,1553652459393,1553652390097,1553652534742
1,ec-RS-6-3-1024k,Pagerank_Stage1-2,1553651672125,1553651678237,1553651904702,35455938100,64044531079,28451821791,29827450252,58262865892,29834867250,196,36,0,0,195,1,0,1553651680538,1553651741006,1553651714614,1553651904611
1,ec-RS-6-3-1024k,Create pagerank links,1553651138330,1553651143739,1553651175293,66684,33884216300,0,0,33094290,0,160,0,0,0,0,0,160,1553651145998,1553651175209,0,0
1,ec-RS-6-3-1024k,Pagerank_Stage1-1,1553651236951,1553651245964,1553651477257,34735710650,59916850141,29125509949,29094644374,58195779234,29102061372,164,36,0,0,164,0,0,1553651248286,1553651328488,1553651297318,1553651477166
1,rep3,Pagerank_Stage1-3,1553653789073,1553653794391,1553654019205,35454876642,64040647500,28451821791,29826388794,58261804434,29833805792,196,36,0,0,190,6,0,1553653796661,1553653874702,1553653828649,1553654019147
1,rep3,Pagerank_Stage2-2,1553653590496,1553653601332,1553653786659,64045499528,1570633310,59311388366,59226005712,118504449022,59233420298,252,36,0,0,247,5,0,1553653604430,1553653713097,1553653647513,1553653786601
1,rep3,Create pagerank nodes,1553652779043,1553652786825,1553652802924,66684,532,0,1816,33178930,7426698,160,36,0,0,0,0,160,1553652789559,1553652801081,1553652797231,1553652802856
1,rep3,Pagerank_Stage1-1,1553652927585,1553652936265,1553653150746,34723140026,59916850141,29125509949,29094644374,58195779234,29102061372,164,36,0,0,164,0,0,1553652938587,1553653012735,1553652986333,1553653150688
1,rep3,Create pagerank links,1553652806199,1553652811626,1553652841713,66684,33884216300,0,0,33094290,0,160,0,0,0,0,0,160,1553652813861,1553652841620,0,0
1,rep3,Pagerank_Stage1-2,1553653362527,1553653367784,1553653588681,35455936746,64044579764,28451821791,29827448898,58262864538,29834865896,196,36,0,0,193,3,0,1553653370046,1553653433032,1553653402127,1553653588623
1,rep3,Pagerank_Stage2-3,1553654021092,1553654026405,1553654216240,64041567264,1570542536,59307513301,59222073448,118496584494,59229488034,252,36,0,0,247,5,0,1553654029282,1553654136534,1553654075831,1553654216182
1,rep3,Pagerank_Stage2-1,1553653153542,1553653170881,1553653359970,59917769905,1571693414,53396934604,55098276089,108470101013,55105690675,252,36,0,0,248,4,0,1553653173164,1553653282253,1553653218237,1553653359912
2,ec-RS-6-3-1024k,Create pagerank links,1553660253576,1553660259449,1553660289214,66684,33884216300,0,0,33094290,0,160,0,0,0,0,0,160,1553660261725,1553660289128,0,0
2,ec-RS-6-3-1024k,Pagerank_Stage1-1,1553660352191,1553660361412,1553660593275,34735710650,59916850141,29125509949,29094644374,58195779234,29102061372,164,36,0,0,164,0,0,1553660363803,1553660452641,1553660411758,1553660593185
2,ec-RS-6-3-1024k,Pagerank_Stage2-3,1553661455702,1553661461641,1553661658418,64946703530,1570545556,59308005807,59222124786,118496687170,59229539372,252,36,0,0,252,0,0,1553661463864,1553661572280,1553661508952,1553661658268
2,ec-RS-6-3-1024k,Pagerank_Stage2-1,1553660596041,1553660603370,1553660794076,60822854833,1571701314,53396934604,55098276089,108470101013,55105690675,252,36,0,0,252,0,0,1553660605872,1553660720197,1553660652711,1553660793993
2,ec-RS-6-3-1024k,Pagerank_Stage1-2,1553660796032,1553660801802,1553661021261,35455944646,64044619309,28451821791,29827456798,58262872438,29834873796,196,36,0,0,194,2,0,1553660804064,1553660867474,1553660838155,1553661021170
2,ec-RS-6-3-1024k,Pagerank_Stage2-2,1553661023935,1553661029745,1553661224321,64950624001,1570626243,59311538687,59226045257,118504528112,59233459843,252,36,0,0,252,0,0,1553661032008,1553661150397,1553661077080,1553661224238
2,ec-RS-6-3-1024k,Pagerank_Stage1-3,1553661226828,1553661231793,1553661453954,35454869575,64040698838,28451821791,29826381727,58261797367,29833798725,196,36,0,0,195,1,0,1553661234022,1553661296408,1553661270098,1553661453863
2,ec-RS-6-3-1024k,Create pagerank nodes,1553660227243,1553660235166,1553660251448,66684,532,0,1816,33178930,7426698,160,36,0,0,0,0,160,1553660237467,1553660248897,1553660245556,1553660251223
2,rep3,Pagerank_Stage1-3,1553662901105,1553662906831,1553663123091,35454872749,64040527526,28451821791,29826384901,58261800541,29833801899,196,36,0,0,192,4,0,1553662909097,1553662977164,1553662941235,1553663123033
2,rep3,Pagerank_Stage2-2,1553662699356,1553662714466,1553662899074,64045406233,1570629417,59311380329,59225912417,118504262432,59233327003,252,36,0,0,246,6,0,1553662717454,1553662817934,1553662760862,1553662899016
2,rep3,Create pagerank nodes,1553661893706,1553661901357,1553661916593,66684,532,0,1816,33178930,7426698,160,36,0,0,0,0,160,1553661903685,1553661914992,1553661911742,1553661916524
2,rep3,Pagerank_Stage1-1,1553662039917,1553662050698,1553662275560,34723140026,59916850141,29125509949,29094644374,58195779234,29102061372,164,36,0,0,161,3,0,1553662053013,1553662124392,1553662101067,1553662275502
2,rep3,Create pagerank links,1553661918962,1553661924497,1553661955277,66684,33884216300,0,0,33094290,0,160,0,0,0,0,0,160,1553661926733,1553661955218,0,0
2,rep3,Pagerank_Stage1-2,1553662475260,1553662480227,1553662697198,35455942853,64044486469,28451821791,29827455005,58262870645,29834872003,196,36,0,0,191,5,0,1553662482452,1553662545384,1553662515593,1553662697140
2,rep3,Pagerank_Stage2-3,1553663124955,1553663133965,1553663340027,64041447290,1570551586,59307534026,59221953474,118496344546,59229368060,252,36,0,0,247,5,0,1553663136240,1553663259502,1553663182264,1553663339969
2,rep3,Pagerank_Stage2-1,1553662279117,1553662285548,1553662473237,59917769905,1571699521,53396934604,55098276089,108470101013,55105690675,252,36,0,0,249,3,0,1553662288211,1553662401078,1553662333944,1553662473178
0,ec-RS-6-3-1024k,Cluster Iterator running iteration 2 over priorPath: hdfs://econome-1.nantes.grid5000.fr:9000/data/HiBench/Kmeans/Output/clusters-1,1553646032185,1553646038357,1553646208352,247909039800,2703,0,2637006,188795590,2843786,900,1,0,0,900,0,0,1553646040562,1553646207110,1553646070743,1553646208261
0,ec-RS-6-3-1024k,Cluster Iterator running iteration 1 over priorPath: hdfs://econome-1.nantes.grid5000.fr:9000/data/HiBench/Kmeans/Output/clusters-0,1553645737213,1553645746897,1553646029508,247910256600,2703,0,3123006,189281590,3329786,900,1,0,0,899,1,0,1553645749269,1553646028333,1553645803306,1553646029418
0,ec-RS-6-3-1024k,Cluster Iterator running iteration 8 over priorPath: hdfs://econome-1.nantes.grid5000.fr:9000/data/HiBench/Kmeans/Output/clusters-7,1553647122578,1553647127770,1553647300962,247909039800,2703,0,2637006,188795590,2843786,900,1,0,0,900,0,0,1553647130010,1553647299710,1553647162134,1553647300872
0,ec-RS-6-3-1024k,Cluster Iterator running iteration 4 over priorPath: hdfs://econome-1.nantes.grid5000.fr:9000/data/HiBench/Kmeans/Output/clusters-3,1553646395397,1553646401485,1553646575534,247909039800,2703,0,2637006,188795590,2843786,900,1,0,0,900,0,0,1553646403733,1553646574031,1553646435806,1553646575442
0,ec-RS-6-3-1024k,Cluster Classification Driver running over input: hdfs://econome-1.nantes.grid5000.fr:9000/data/HiBench/Kmeans/Input/samples,1553647667170,1553647672383,1553647915627,247909039800,283873990521,0,0,185918290,0,900,0,0,0,899,1,0,1553647674619,1553647915466,0,0
0,ec-RS-6-3-1024k,Cluster Iterator running iteration 3 over priorPath: hdfs://econome-1.nantes.grid5000.fr:9000/data/HiBench/Kmeans/Output/clusters-2,1553646210794,1553646217411,1553646392903,247909039800,2703,0,2637006,188795590,2843786,900,1,0,0,900,0,0,1553646219695,1553646391126,1553646250910,1553646392813
0,ec-RS-6-3-1024k,Cluster Iterator running iteration 7 over priorPath: hdfs://econome-1.nantes.grid5000.fr:9000/data/HiBench/Kmeans/Output/clusters-6,1553646941423,1553646947562,1553647120597,247909039800,2703,0,2637006,188795590,2843786,900,1,0,0,900,0,0,1553646949766,1553647118855,1553646980817,1553647120506
0,ec-RS-6-3-1024k,Cluster Iterator running iteration 10 over priorPath: hdfs://econome-1.nantes.grid5000.fr:9000/data/HiBench/Kmeans/Output/clusters-9,1553647485992,1553647491211,1553647664413,247909039800,2703,0,2637006,188797390,2843788,900,1,0,0,900,0,0,1553647493457,1553647662943,1553647524615,1553647664323
0,ec-RS-6-3-1024k,Cluster Iterator running iteration 6 over priorPath: hdfs://econome-1.nantes.grid5000.fr:9000/data/HiBench/Kmeans/Output/clusters-5,1553646758145,1553646763945,1553646939182,247909039800,2703,0,2637006,188795590,2843786,900,1,0,0,900,0,0,1553646766164,1553646937487,1553646798317,1553646939091
0,ec-RS-6-3-1024k,Cluster Iterator running iteration 5 over priorPath: hdfs://econome-1.nantes.grid5000.fr:9000/data/HiBench/Kmeans/Output/clusters-4,1553646577611,1553646583554,1553646756071,247909039800,2703,0,2637006,188795590,2843786,900,1,0,0,900,0,0,1553646585835,1553646754589,1553646616973,1553646755981
0,ec-RS-6-3-1024k,Cluster Iterator running iteration 9 over priorPath: hdfs://econome-1.nantes.grid5000.fr:9000/data/HiBench/Kmeans/Output/clusters-8,1553647303763,1553647309416,1553647483484,247909039800,2703,0,2637006,188795590,2843786,900,1,0,0,899,1,0,1553647311673,1553647482033,1553647342699,1553647483395
0,ec-RS-6-3-1024k,autogen-7.1-SNAPSHOT-jar-with-dependencies.jar,1553645388049,1553645395885,1553645707630,29474,238846604340,0,0,6185900,0,30,0,0,0,28,2,0,1553645398171,1553645707539,0,0
0,rep3,Cluster Iterator running iteration 9 over priorPath: hdfs://econome-1.nantes.grid5000.fr:9000/data/HiBench/Kmeans/Output/clusters-8,1553650085105,1553650091504,1553650266174,238897929510,2703,0,2717646,188876230,2924426,900,1,0,0,897,3,0,1553650093753,1553650265206,1553650124856,1553650266110
0,rep3,Cluster Iterator running iteration 5 over priorPath: hdfs://econome-1.nantes.grid5000.fr:9000/data/HiBench/Kmeans/Output/clusters-4,1553649341502,1553649348010,1553649526745,238897929510,2703,0,2717646,188876230,2924426,900,1,0,0,895,5,0,1553649350277,1553649525052,1553649381414,1553649526689
0,rep3,Cluster Iterator running iteration 6 over priorPath: hdfs://econome-1.nantes.grid5000.fr:9000/data/HiBench/Kmeans/Output/clusters-5,1553649528687,1553649533713,1553649712481,238897929510,2703,0,2717646,188876230,2924426,900,1,0,0,896,4,0,1553649535952,1553649710743,1553649566987,1553649712424
0,rep3,Cluster Iterator running iteration 10 over priorPath: hdfs://econome-1.nantes.grid5000.fr:9000/data/HiBench/Kmeans/Output/clusters-9,1553650268250,1553650274075,1553650450586,238897929510,2703,0,2717646,188878030,2924428,900,1,0,0,896,4,0,1553650276327,1553650449614,1553650307494,1553650450529
0,rep3,autogen-7.1-SNAPSHOT-jar-with-dependencies.jar,1553648171101,1553648179294,1553648481512,29558,238846604340,0,0,6185900,0,30,0,0,0,27,3,0,1553648181602,1553648481171,0,0
0,rep3,Cluster Iterator running iteration 1 over priorPath: hdfs://econome-1.nantes.grid5000.fr:9000/data/HiBench/Kmeans/Output/clusters-0,1553648564007,1553648573007,1553648775625,238899146310,2703,0,3123006,189281590,3329786,900,1,0,0,895,5,0,1553648575306,1553648774109,1553648615761,1553648775562
0,rep3,Cluster Iterator running iteration 2 over priorPath: hdfs://econome-1.nantes.grid5000.fr:9000/data/HiBench/Kmeans/Output/clusters-1,1553648777785,1553648783867,1553648964311,238897929510,2703,0,2766606,188925190,2973386,900,1,0,0,897,3,0,1553648786135,1553648962492,1553648817302,1553648964254
0,rep3,Cluster Iterator running iteration 3 over priorPath: hdfs://econome-1.nantes.grid5000.fr:9000/data/HiBench/Kmeans/Output/clusters-2,1553648967054,1553648973009,1553649153212,238897929510,2703,0,2717646,188876230,2924426,900,1,0,0,899,1,0,1553648975259,1553649151549,1553649006446,1553649153155
0,rep3,Cluster Classification Driver running over input: hdfs://econome-1.nantes.grid5000.fr:9000/data/HiBench/Kmeans/Input/samples,1553650452453,1553650458154,1553650793305,238897929510,283616810991,0,0,185918290,0,900,0,0,0,891,9,0,1553650460449,1553650793176,0,0
0,rep3,Cluster Iterator running iteration 7 over priorPath: hdfs://econome-1.nantes.grid5000.fr:9000/data/HiBench/Kmeans/Output/clusters-6,1553649714831,1553649720486,1553649895795,238897929510,2703,0,2717646,188876230,2924426,900,1,0,0,897,3,0,1553649722770,1553649894721,1553649753799,1553649895738
0,rep3,Cluster Iterator running iteration 8 over priorPath: hdfs://econome-1.nantes.grid5000.fr:9000/data/HiBench/Kmeans/Output/clusters-7,1553649897952,1553649903636,1553650082869,238897929510,2703,0,2717646,188876230,2924426,900,1,0,0,897,3,0,1553649905856,1553650081465,1553649936904,1553650082812
0,rep3,Cluster Iterator running iteration 4 over priorPath: hdfs://econome-1.nantes.grid5000.fr:9000/data/HiBench/Kmeans/Output/clusters-3,1553649155306,1553649161563,1553649339322,238897929510,2703,0,2717646,188876230,2924426,900,1,0,0,897,3,0,1553649163835,1553649338109,1553649195105,1553649339265
1,ec-RS-6-3-1024k,Cluster Iterator running iteration 3 over priorPath: hdfs://econome-1.nantes.grid5000.fr:9000/data/HiBench/Kmeans/Output/clusters-2,1553655289113,1553655295212,1553655466142,247909039800,2703,0,2701806,188860390,2908586,900,1,0,0,900,0,0,1553655297443,1553655464725,1553655327574,1553655466051
1,ec-RS-6-3-1024k,Cluster Classification Driver running over input: hdfs://econome-1.nantes.grid5000.fr:9000/data/HiBench/Kmeans/Input/samples,1553656721176,1553656727119,1553656969239,247909039800,284027182426,0,0,185918290,0,900,0,0,0,899,1,0,1553656729403,1553656969146,0,0
1,ec-RS-6-3-1024k,Cluster Iterator running iteration 7 over priorPath: hdfs://econome-1.nantes.grid5000.fr:9000/data/HiBench/Kmeans/Output/clusters-6,1553656008142,1553656013476,1553656183285,247909039800,2703,0,2701806,188860390,2908586,900,1,0,0,900,0,0,1553656015718,1553656182195,1553656045834,1553656183196
1,ec-RS-6-3-1024k,Cluster Iterator running iteration 8 over priorPath: hdfs://econome-1.nantes.grid5000.fr:9000/data/HiBench/Kmeans/Output/clusters-7,1553656185358,1553656190393,1553656363431,247909039800,2703,0,2701806,188860390,2908586,900,1,0,0,899,1,0,1553656192640,1553656361617,1553656222701,1553656363342
1,ec-RS-6-3-1024k,Cluster Iterator running iteration 4 over priorPath: hdfs://econome-1.nantes.grid5000.fr:9000/data/HiBench/Kmeans/Output/clusters-3,1553655468417,1553655473780,1553655649247,247909039800,2703,0,2701806,188860390,2908586,900,1,0,0,900,0,0,1553655476030,1553655647356,1553655506109,1553655649166
1,ec-RS-6-3-1024k,Cluster Iterator running iteration 1 over priorPath: hdfs://econome-1.nantes.grid5000.fr:9000/data/HiBench/Kmeans/Output/clusters-0,1553654824642,1553654834443,1553655107729,247910256600,2703,0,3123006,189281590,3329786,901,1,0,0,899,1,1,1553654836792,1553655106459,1553654885931,1553655107638
1,ec-RS-6-3-1024k,Cluster Iterator running iteration 2 over priorPath: hdfs://econome-1.nantes.grid5000.fr:9000/data/HiBench/Kmeans/Output/clusters-1,1553655110479,1553655116543,1553655286690,247909039800,2703,0,2709006,188867590,2915786,900,1,0,0,900,0,0,1553655118804,1553655284974,1553655148936,1553655286600
1,ec-RS-6-3-1024k,autogen-7.1-SNAPSHOT-jar-with-dependencies.jar,1553654472443,1553654479841,1553654796618,29558,238846604340,0,0,6185900,0,30,0,0,0,28,2,0,1553654482133,1553654796526,0,0
1,ec-RS-6-3-1024k,Cluster Iterator running iteration 9 over priorPath: hdfs://econome-1.nantes.grid5000.fr:9000/data/HiBench/Kmeans/Output/clusters-8,1553656365536,1553656370375,1553656540468,247909039800,2703,0,2701806,188860390,2908586,900,1,0,0,899,1,0,1553656372615,1553656539227,1553656402660,1553656540378
1,ec-RS-6-3-1024k,Cluster Iterator running iteration 5 over priorPath: hdfs://econome-1.nantes.grid5000.fr:9000/data/HiBench/Kmeans/Output/clusters-4,1553655651771,1553655657463,1553655828118,247909039800,2703,0,2701806,188860390,2908586,900,1,0,0,900,0,0,1553655659746,1553655826588,1553655689886,1553655828027
1,ec-RS-6-3-1024k,Cluster Iterator running iteration 6 over priorPath: hdfs://econome-1.nantes.grid5000.fr:9000/data/HiBench/Kmeans/Output/clusters-5,1553655829956,1553655835533,1553656005646,247909039800,2703,0,2701806,188860390,2908586,900,1,0,0,900,0,0,1553655837805,1553656004498,1553655867890,1553656005555
1,ec-RS-6-3-1024k,Cluster Iterator running iteration 10 over priorPath: hdfs://econome-1.nantes.grid5000.fr:9000/data/HiBench/Kmeans/Output/clusters-9,1553656542823,1553656548730,1553656718788,247909039800,2703,0,2701806,188862190,2908588,900,1,0,0,900,0,0,1553656550972,1553656717591,1553656581159,1553656718697
1,rep3,autogen-7.1-SNAPSHOT-jar-with-dependencies.jar,1553657257358,1553657265055,1553657578137,29462,238846604340,0,0,6185900,0,30,0,0,0,26,4,0,1553657267344,1553657577988,0,0
1,rep3,Cluster Iterator running iteration 9 over priorPath: hdfs://econome-1.nantes.grid5000.fr:9000/data/HiBench/Kmeans/Output/clusters-8,1553659194088,1553659200076,1553659379466,238897929510,2703,0,2637006,188795590,2843786,900,1,0,0,895,5,0,1553659202354,1553659378150,1553659234528,1553659379410
1,rep3,Cluster Iterator running iteration 5 over priorPath: hdfs://econome-1.nantes.grid5000.fr:9000/data/HiBench/Kmeans/Output/clusters-4,1553658445263,1553658450802,1553658629676,238897929510,2703,0,2637006,188795590,2843786,900,1,0,0,898,2,0,1553658453060,1553658628586,1553658485157,1553658629612
1,rep3,Cluster Iterator running iteration 6 over priorPath: hdfs://econome-1.nantes.grid5000.fr:9000/data/HiBench/Kmeans/Output/clusters-5,1553658631524,1553658636809,1553658815622,238897929510,2703,0,2637006,188795590,2843786,900,1,0,0,896,4,0,1553658639049,1553658813763,1553658670138,1553658815558
1,rep3,Cluster Iterator running iteration 10 over priorPath: hdfs://econome-1.nantes.grid5000.fr:9000/data/HiBench/Kmeans/Output/clusters-9,1553659381396,1553659386529,1553659565306,238897929510,2703,0,2637006,188797390,2843788,900,1,0,0,897,3,0,1553659388772,1553659564245,1553659420950,1553659565242
1,rep3,Cluster Iterator running iteration 3 over priorPath: hdfs://econome-1.nantes.grid5000.fr:9000/data/HiBench/Kmeans/Output/clusters-2,1553658071398,1553658077331,1553658256220,238897929510,2703,0,2637006,188795590,2843786,900,1,0,0,897,3,0,1553658079588,1553658255066,1553658110707,1553658256164
1,rep3,Cluster Classification Driver running over input: hdfs://econome-1.nantes.grid5000.fr:9000/data/HiBench/Kmeans/Input/samples,1553659567560,1553659572508,1553659908470,238897929510,283881351751,0,0,185918290,0,900,0,0,0,893,7,0,1553659574767,1553659908299,0,0
1,rep3,Cluster Iterator running iteration 7 over priorPath: hdfs://econome-1.nantes.grid5000.fr:9000/data/HiBench/Kmeans/Output/clusters-6,1553658817644,1553658823790,1553659004292,238897929510,2703,0,2637006,188795590,2843786,900,1,0,0,895,5,0,1553658825978,1553659003019,1553658858047,1553659004228
1,rep3,Cluster Iterator running iteration 8 over priorPath: hdfs://econome-1.nantes.grid5000.fr:9000/data/HiBench/Kmeans/Output/clusters-7,1553659006789,1553659012606,1553659192049,238897929510,2703,0,2637006,188795590,2843786,900,1,0,0,897,3,0,1553659014868,1553659190388,1553659046994,1553659191991
1,rep3,Cluster Iterator running iteration 4 over priorPath: hdfs://econome-1.nantes.grid5000.fr:9000/data/HiBench/Kmeans/Output/clusters-3,1553658258718,1553658264705,1553658443098,238897929510,2703,0,2637006,188795590,2843786,900,1,0,0,897,3,0,1553658266956,1553658441216,1553658298062,1553658443042
1,rep3,Cluster Iterator running iteration 1 over priorPath: hdfs://econome-1.nantes.grid5000.fr:9000/data/HiBench/Kmeans/Output/clusters-0,1553657670854,1553657680924,1553657885016,238899146310,2703,0,3123006,189281590,3329786,900,1,0,0,885,15,0,1553657683298,1553657883858,1553657722460,1553657884953
1,rep3,Cluster Iterator running iteration 2 over priorPath: hdfs://econome-1.nantes.grid5000.fr:9000/data/HiBench/Kmeans/Output/clusters-1,1553657887166,1553657892913,1553658069466,238897929510,2703,0,2637006,188795590,2843786,900,1,0,0,896,4,0,1553657895183,1553658068251,1553657926283,1553658069401
2,ec-RS-6-3-1024k,Cluster Iterator running iteration 2 over priorPath: hdfs://econome-1.nantes.grid5000.fr:9000/data/HiBench/Kmeans/Output/clusters-1,1553664235903,1553664241940,1553664414172,247909039800,2703,0,2637006,188795590,2843786,900,1,0,0,900,0,0,1553664244153,1553664412434,1553664274330,1553664414082
2,ec-RS-6-3-1024k,Cluster Iterator running iteration 1 over priorPath: hdfs://econome-1.nantes.grid5000.fr:9000/data/HiBench/Kmeans/Output/clusters-0,1553663933687,1553663943483,1553664233611,247910256600,2703,0,3123006,189281590,3329786,900,1,0,0,899,1,0,1553663945820,1553664232355,1553663994153,1553664233520
2,ec-RS-6-3-1024k,Cluster Iterator running iteration 8 over priorPath: hdfs://econome-1.nantes.grid5000.fr:9000/data/HiBench/Kmeans/Output/clusters-7,1553665319832,1553665325463,1553665498949,247909039800,2703,0,2637006,188795590,2843786,900,1,0,0,900,0,0,1553665327719,1553665497106,1553665357951,1553665498859
2,ec-RS-6-3-1024k,Cluster Iterator running iteration 4 over priorPath: hdfs://econome-1.nantes.grid5000.fr:9000/data/HiBench/Kmeans/Output/clusters-3,1553664596758,1553664602730,1553664774901,247909039800,2703,0,2637006,188795590,2843786,900,1,0,0,898,2,0,1553664604985,1553664773438,1553664635117,1553664774820
2,ec-RS-6-3-1024k,Cluster Classification Driver running over input: hdfs://econome-1.nantes.grid5000.fr:9000/data/HiBench/Kmeans/Input/samples,1553665864042,1553665869561,1553666115171,247909039800,283610521712,0,0,185918290,0,900,0,0,0,896,4,0,1553665871857,1553666115076,0,0
2,ec-RS-6-3-1024k,Cluster Iterator running iteration 3 over priorPath: hdfs://econome-1.nantes.grid5000.fr:9000/data/HiBench/Kmeans/Output/clusters-2,1553664416265,1553664422108,1553664593934,247909039800,2703,0,2637006,188795590,2843786,900,1,0,0,898,2,0,1553664424554,1553664592610,1553664454598,1553664593843
2,ec-RS-6-3-1024k,Cluster Iterator running iteration 7 over priorPath: hdfs://econome-1.nantes.grid5000.fr:9000/data/HiBench/Kmeans/Output/clusters-6,1553665138672,1553665144939,1553665317065,247909039800,2703,0,2637006,188795590,2843786,900,1,0,0,900,0,0,1553665147090,1553665315121,1553665177247,1553665316975
2,ec-RS-6-3-1024k,Cluster Iterator running iteration 10 over priorPath: hdfs://econome-1.nantes.grid5000.fr:9000/data/HiBench/Kmeans/Output/clusters-9,1553665682624,1553665688503,1553665861702,247909039800,2703,0,2637006,188797390,2843788,900,1,0,0,899,1,0,1553665690774,1553665860227,1553665720914,1553665861612
2,ec-RS-6-3-1024k,Cluster Iterator running iteration 6 over priorPath: hdfs://econome-1.nantes.grid5000.fr:9000/data/HiBench/Kmeans/Output/clusters-5,1553664958470,1553664963886,1553665136615,247909039800,2703,0,2637006,188795590,2843786,900,1,0,0,900,0,0,1553664966125,1553665134590,1553664996292,1553665136525
2,ec-RS-6-3-1024k,Cluster Iterator running iteration 5 over priorPath: hdfs://econome-1.nantes.grid5000.fr:9000/data/HiBench/Kmeans/Output/clusters-4,1553664777260,1553664783403,1553664956206,247909039800,2703,0,2637006,188795590,2843786,900,1,0,0,900,0,0,1553664785683,1553664954972,1553664815763,1553664956108
2,ec-RS-6-3-1024k,Cluster Iterator running iteration 9 over priorPath: hdfs://econome-1.nantes.grid5000.fr:9000/data/HiBench/Kmeans/Output/clusters-8,1553665501063,1553665507110,1553665680278,247909039800,2703,0,2637006,188795590,2843786,900,1,0,0,900,0,0,1553665509400,1553665678743,1553665539527,1553665680187
2,ec-RS-6-3-1024k,autogen-7.1-SNAPSHOT-jar-with-dependencies.jar,1553663584691,1553663592434,1553663904414,29552,238846604340,0,0,6185900,0,30,0,0,0,28,2,0,1553663594724,1553663904323,0,0
2,rep3,Cluster Iterator running iteration 2 over priorPath: hdfs://econome-1.nantes.grid5000.fr:9000/data/HiBench/Kmeans/Output/clusters-1,1553666974058,1553666980309,1553667160287,238897929510,2703,0,2637006,188795590,2843786,900,1,0,0,892,8,0,1553666982579,1553667158517,1553667013687,1553667160230
2,rep3,Cluster Iterator running iteration 1 over priorPath: hdfs://econome-1.nantes.grid5000.fr:9000/data/HiBench/Kmeans/Output/clusters-0,1553666757157,1553666767265,1553666972167,238899146310,2703,0,3123006,189281590,3329786,900,1,0,0,889,11,0,1553666769659,1553666970577,1553666809890,1553666972110
2,rep3,Cluster Iterator running iteration 8 over priorPath: hdfs://econome-1.nantes.grid5000.fr:9000/data/HiBench/Kmeans/Output/clusters-7,1553668087258,1553668093728,1553668268836,238897929510,2703,0,2637006,188795590,2843786,900,1,0,0,898,2,0,1553668095987,1553668267663,1553668127268,1553668268772
2,rep3,Cluster Iterator running iteration 4 over priorPath: hdfs://econome-1.nantes.grid5000.fr:9000/data/HiBench/Kmeans/Output/clusters-3,1553667346510,1553667352239,1553667528446,238897929510,2703,0,2637006,188795590,2843786,900,1,0,0,895,5,0,1553667354493,1553667527034,1553667385547,1553667528389
2,rep3,Cluster Iterator running iteration 3 over priorPath: hdfs://econome-1.nantes.grid5000.fr:9000/data/HiBench/Kmeans/Output/clusters-2,1553667162303,1553667167856,1553667343735,238897929510,2703,0,2637006,188795590,2843786,900,1,0,0,894,6,0,1553667170111,1553667342565,1553667201220,1553667343671
2,rep3,Cluster Classification Driver running over input: hdfs://econome-1.nantes.grid5000.fr:9000/data/HiBench/Kmeans/Input/samples,1553668644965,1553668650275,1553668989196,238897929510,283848787520,0,0,185918290,0,900,0,0,0,898,2,0,1553668652537,1553668989058,0,0
2,rep3,Cluster Iterator running iteration 7 over priorPath: hdfs://econome-1.nantes.grid5000.fr:9000/data/HiBench/Kmeans/Output/clusters-6,1553667903014,1553667907991,1553668085410,238897929510,2703,0,2637006,188795590,2843786,900,1,0,0,899,1,0,1553667910243,1553668084102,1553667941337,1553668085354
2,rep3,Cluster Iterator running iteration 6 over priorPath: hdfs://econome-1.nantes.grid5000.fr:9000/data/HiBench/Kmeans/Output/clusters-5,1553667717871,1553667724107,1553667900608,238897929510,2703,0,2637006,188795590,2843786,900,1,0,0,897,3,0,1553667726374,1553667899235,1553667757427,1553667900551
2,rep3,Cluster Iterator running iteration 10 over priorPath: hdfs://econome-1.nantes.grid5000.fr:9000/data/HiBench/Kmeans/Output/clusters-9,1553668459793,1553668465252,1553668642659,238897929510,2703,0,2637006,188797390,2843788,900,1,0,0,896,4,0,1553668467478,1553668641167,1553668498744,1553668642603
2,rep3,Cluster Iterator running iteration 9 over priorPath: hdfs://econome-1.nantes.grid5000.fr:9000/data/HiBench/Kmeans/Output/clusters-8,1553668271433,1553668277518,1553668457412,238897929510,2703,0,2637006,188795590,2843786,900,1,0,0,895,5,0,1553668279742,1553668455972,1553668310697,1553668457340
2,rep3,Cluster Iterator running iteration 5 over priorPath: hdfs://econome-1.nantes.grid5000.fr:9000/data/HiBench/Kmeans/Output/clusters-4,1553667530687,1553667537011,1553667715079,238897929510,2703,0,2637006,188795590,2843786,900,1,0,0,895,5,0,1553667539283,1553667713414,1553667570409,1553667715021
2,rep3,autogen-7.1-SNAPSHOT-jar-with-dependencies.jar,1553666366967,1553666374420,1553666679242,29474,238846604340,0,0,6185900,0,30,0,0,0,25,5,0,1553666376710,1553666679151,0,0
