run_id,policy,file_size,client_id,operation,op_time,nb_clients
0,ec-RS-6-3-1024k,268435456,0,put,4.275,1
0,ec-RS-6-3-1024k,268435456,0,get,4.574,1
0,ec-RS-6-3-1024k,1073741824,0,put,6.73,1
0,ec-RS-6-3-1024k,1073741824,0,get,5.349,1
0,ec-RS-6-3-1024k,5368709120,0,put,20.829,1
0,ec-RS-6-3-1024k,5368709120,0,get,13.49,1
0,ec-RS-6-3-1024k,10737418240,0,put,37.434,1
0,ec-RS-6-3-1024k,10737418240,0,get,20.001,1
0,ec-RS-6-3-1024k,21474836480,0,put,69.551,1
0,ec-RS-6-3-1024k,21474836480,0,get,36.056,1
0,ec-RS-10-4-1024k,268435456,0,put,3.977,1
0,ec-RS-10-4-1024k,268435456,0,get,3.463,1
0,ec-RS-10-4-1024k,1073741824,0,put,6.355,1
0,ec-RS-10-4-1024k,1073741824,0,get,4.754,1
0,ec-RS-10-4-1024k,5368709120,0,put,19.123,1
0,ec-RS-10-4-1024k,5368709120,0,get,12.444,1
0,ec-RS-10-4-1024k,10737418240,0,put,35.5,1
0,ec-RS-10-4-1024k,10737418240,0,get,21.149,1
0,ec-RS-10-4-1024k,21474836480,0,put,73.073,1
0,ec-RS-10-4-1024k,21474836480,0,get,36.459,1
0,ec-RS-3-2-1024k,268435456,0,put,4.002,1
0,ec-RS-3-2-1024k,268435456,0,get,3.825,1
0,ec-RS-3-2-1024k,1073741824,0,put,6.665,1
0,ec-RS-3-2-1024k,1073741824,0,get,6.033,1
0,ec-RS-3-2-1024k,5368709120,0,put,22.237,1
0,ec-RS-3-2-1024k,5368709120,0,get,18.034,1
0,ec-RS-3-2-1024k,10737418240,0,put,39.845,1
0,ec-RS-3-2-1024k,10737418240,0,get,32.165,1
0,ec-RS-3-2-1024k,21474836480,0,put,76.481,1
0,ec-RS-3-2-1024k,21474836480,0,get,63.039,1
0,ec-RS-6-3-8192k,268435456,0,put,4.69,1
0,ec-RS-6-3-8192k,268435456,0,get,3.646,1
0,ec-RS-6-3-8192k,1073741824,0,put,7.54,1
0,ec-RS-6-3-8192k,1073741824,0,get,5.137,1
0,ec-RS-6-3-8192k,5368709120,0,put,22.51,1
0,ec-RS-6-3-8192k,5368709120,0,get,13.504,1
0,ec-RS-6-3-8192k,10737418240,0,put,39.115,1
0,ec-RS-6-3-8192k,10737418240,0,get,23.891,1
0,ec-RS-6-3-8192k,21474836480,0,put,77.86,1
0,ec-RS-6-3-8192k,21474836480,0,get,43.504,1
0,ec-RS-6-3-32768k,268435456,0,put,5.286,1
0,ec-RS-6-3-32768k,268435456,0,get,3.775,1
0,ec-RS-6-3-32768k,1073741824,0,put,8.174,1
0,ec-RS-6-3-32768k,1073741824,0,get,6.035,1
0,ec-RS-6-3-32768k,5368709120,0,put,22.462,1
0,ec-RS-6-3-32768k,5368709120,0,get,16.191,1
0,ec-RS-6-3-32768k,10737418240,0,put,39.852,1
0,ec-RS-6-3-32768k,10737418240,0,get,28.762,1
0,ec-RS-6-3-32768k,21474836480,0,put,75.782,1
0,ec-RS-6-3-32768k,21474836480,0,get,52.008,1
