run_id,job_name,policy,datasize,tx,rx,nb_failures,failure_stage,lb_before_1,lb_before_2,lb_after_1,lb_after_2
0,sorter,ec,10,36759016337,36762566048,0,0,882476-706060-882456-706316-529268-882440-1059120-176748-882476-529860-705956-529584-1058900-882468-530028-1234908-1058404-882212-882284-882176,882480-706008-882448-706160-529272-882512-1059000-176564-882592-529564-706004-529656-1058868-882444-529900-1234960-1058556-882220-882404-882260,1757844-1739412-1620044-1057696-1365528-1817872-1948260-966680-1716860-1220140-1834424-1318044-1303568-1859440-1022100-2023984-1942604-1762556-1668356-1867876,1758056-1740828-1620532-1058352-1366004-1818432-1948656-966772-1717324-1220352-1834636-1318928-1303072-1859264-1022524-2024196-1943668-1762376-1668568-1868048
0,sorter,ec,20,73963461823,73964000607,0,0,2293996-1940788-1587864-1234884-2118176-2470508-1058668-1765012-1058692-1764496-2117520-1764344-1588084-2470640-176740-2117556-1412076-1411908-177464-1235336,2294288-1940868-1587976-1234960-2117972-2470624-1058804-1764908-1058768-1764432-2117668-1764384-1588160-2470964-176672-2117660-1411936-1411904-177264-1235420,4154352-3330564-3454328-2798972-3684968-4524860-2439888-3818176-3227188-2847228-3594828-2931208-3063916-4532896-1740740-3500600-3176388-2492320-1362688-2905428,4154740-3330780-3455028-2799580-3685308-4527524-2439556-3818784-3227728-2847840-3595520-2933180-3064620-4534860-1741092-3501468-3177000-2493272-1362948-2906120
0,sorter,ec,40,147677483307,147664238618,0,0,3706328-3528904-3352336-2999652-3352080-3705076-2999908-3353412-2999688-3176416-4940932-3528592-3529272-4411752-3000112-3529324-530528-3529116-2999844-353192,3706260-3528812-3352496-2999804-3352312-3705176-3000656-3353396-3000180-3176576-4941016-3528756-3529296-4411968-3000180-3529612-530196-3529196-3000044-353068,8027152-4503044-6878404-4585940-5329432-4888480-6946880-7272784-6730044-7284036-8682876-6467276-7051492-7555300-7325360-6676240-4443636-6645240-6129280-3707816,8027520-4503412-6878876-4588272-5330820-4887904-6947540-7273732-6731248-7284036-8682328-6467276-7051652-7555300-7325360-6676240-4443636-6645212-6129280-3707816
0,sorter,ec,80,297027132696,296937033079,0,0,7234088-6528424-2471144-7587276-7939988-7058136-7940348-8293672-8116528-8116444-6528692-2471036-5117616-2647208-6353556-6352656-6882480-7587816-5646548-6174680,7234344-6528528-2471428-7587504-7941016-7058692-7941188-8293868-8116288-8116928-6529600-2472100-5117856-2647452-6353428-6352800-6882348-7588288-5646776-6174940,13500748-11924540-9943940-14691116-13795288-13761880-14629892-14862464-14901076-14031652-11857636-9967692-11830496-9052328-10996948-12644424-14013940-12648668-12308796-12850160,13500436-11924008-9946040-14692324-13798940-13763156-14629356-14862316-14903864-14031656-11857644-9967700-11830492-9052340-10993864-12644416-14013964-12645704-12308800-12850168
0,sorter,rep3,10,34666793199,34664759957,0,0,2908064-2383288-2643868-2115528-1323192-1851272-1060468-1588892-2117256-1587464-1590880-1321852-266076-1587136-2115480-792864-1854876-1058684-530440-1064188,2908224-2383364-2643864-2115552-1323140-1851280-1060540-1588896-2117320-1587116-1590944-1321492-266068-1587296-2115512-792652-1854936-1058688-530292-1064224,4696696-3645848-4584360-4169000-2242112-3053820-3041328-3343852-5510108-2243024-3133904-3285468-1689984-1967680-3651004-2476360-2861652-3460060-1961848-2508764,4697260-3645936-4584348-4170564-2242684-3055356-3042216-3343976-5510728-2243368-3134116-3285824-1689808-1967720-3650676-2476716-2861800-3460360-1962264-2509560
0,sorter,rep3,20,67582041484,67572702043,0,0,3174212-3968436-2909888-3174204-2385100-3702600-1594304-4495044-3969220-3175848-2651276-3441892-2915640-2649440-2379840-3438268-2386940-3704492-3438428-3965008,3174116-3968540-2909920-3174328-2385208-3702468-1594396-4495168-3969116-3175884-2651560-3441972-2915552-2649380-2379916-3438272-2387108-3704392-3438624-3964956,5829772-7641200-5901188-5960820-6433604-6877868-6002468-7204792-7151148-6098116-5222808-6667396-7193364-4796504-5311820-6769560-5957536-5968660-6173824-7888760,5830536-7642212-5901448-5961500-6434260-6879596-6005252-7205052-7152732-6098124-5223064-6667400-7193372-4796508-5312148-6769564-5957636-5968664-6173832-7888768
0,sorter,rep3,40,134628290346,134560957582,0,0,7151484-5553936-6348020-6089300-5564720-7406852-7151512-7147892-7145044-6612200-7142452-5821664-6082004-6350904-4234444-5036260-6085944-7408624-6876620-5826876,7151612-5553672-6348596-6089392-5564888-7406808-7151600-7147992-7145000-6612472-7142612-5821696-6082136-6350872-4234704-5036736-6086084-7408760-6876608-5827076,13729140-11611876-14221692-13172920-10126484-12838524-12684928-15111024-14702944-12069424-14710772-11426408-14518136-14698532-9664100-10030800-10729976-14144976-11352588-12542972,13731092-11613276-14222012-13173804-10127456-12840428-12686836-15113272-14707100-12071052-14712604-11427348-14519620-14700652-9665040-10031736-10729984-14145708-11352704-12542656
0,sorter,rep3,80,274264545197,274198542767,0,0,11648256-12437252-14288604-10056604-12430040-13757012-13233428-14024236-12967632-11918120-12448312-12962588-13228012-11120048-14290232-13762428-11644624-13233464-13499456-11119852,11648636-12437820-14289140-10056676-12430500-13756760-13233560-14024468-12967868-11919420-12448344-12962728-13228832-11120352-14290584-13762200-11644600-13233804-13499940-11120112,17934412-22596568-22348624-28496240-20296572-33497560-33207288-22291128-23800624-22291176-28046548-25457108-22010660-21306268-31413092-25405256-26699820-20882996-31077200-29147556,17936608-22601612-22349040-28496164-20297544-33497576-33207304-22291864-23800448-22293696-28048748-25457064-22014236-21305524-31412748-25405256-26699820-20883000-31076508-29147560
0,word-count,ec,10,12063792222,12069171131,0,0,896556-538812-897912-538560-1077284-1077484-358808-1076496-896848-717500-538812-1256892-1077188-897276-897064-896916-717360-358368-538980-896500,896660-538840-897956-538636-1077264-1077604-358616-1076528-896780-717524-538848-1256764-1077144-897236-896916-896880-717452-358476-538776-896308,898728-548368-907272-551432-1085156-1085708-361492-1080428-904292-724124-549844-1264024-1083624-903688-909340-904008-724056-367180-550332-905024,899412-550268-907988-552020-1085416-1086512-362804-1080060-904984-724464-549844-1264492-1083624-904120-909540-903996-724212-367396-551352-905168
0,word-count,ec,20,23600254376,23601957551,0,0,1615228-1974324-179852-2331968-1433580-179820-1794960-1256268-1614876-1973976-2153556-2512456-1436292-1436328-718688-1613872-1794404-2511488-1973284-1794644,1615296-1974432-179696-2332044-1433732-179700-1794904-1256316-1614940-1974048-2153624-2512240-1436436-1436328-718620-1613700-1794520-2511500-1973632-1794784,1621976-1982860-188924-2342480-1446308-192752-1804420-1263564-1620696-1979676-2166648-2522720-1447128-1450884-726876-1622052-1800052-2518992-1979064-1804316,1622336-1982496-188924-2343796-1446308-193188-1804232-1264880-1620492-1979676-2166648-2522704-1447112-1450884-726876-1622052-1800052-2518992-1979064-1804316
0,word-count,ec,40,46683032519,46682191348,0,0,3767680-3410532-4126476-3230908-4485320-3769916-3050428-4484888-3589348-4304336-359384-538644-3229960-3048328-538992-3407480-3768328-4665848-3589096-3230132,3767784-3410280-4126636-3230788-4485184-3770288-3050704-4484932-3589480-4304364-359644-538624-3230216-3048884-538832-3407672-3768456-4666040-3589544-3230324,3775112-3419612-4135968-3241844-4495392-3784876-3061764-4494468-3595160-4312260-369612-549240-3241524-3055108-551256-3412244-3773040-4675208-3601716-3241064,3781112-3421340-4136472-3243052-4497064-3785840-3064636-4495884-3597520-4313348-370600-550452-3242608-3056192-551780-3410480-3775408-4675020-3602800-3243004
0,word-count,ec,80,94322254849,94310968789,0,0,6102284-7892716-3589164-8255568-6996212-6998948-7534936-7895124-5918428-6816976-7180732-6813672-3409032-6281884-5562012-6100420-7356368-7181792-5917700-5385496,6101920-7892784-3589600-8255880-6997160-6999300-7535252-7895556-5918672-6817200-7180432-6814020-3409356-6282432-5562116-6100504-7357392-7181844-5918184-5385552,6111252-7901084-3602040-8264788-7010396-7007180-7549220-7906240-5928372-6827896-7193372-6823716-3422680-6293004-5579296-6108704-7367024-7190956-5932316-5399092,6116084-7904736-3607536-8267432-7012924-7011684-7552824-7916828-5929412-6829428-7195040-6823480-3428664-6292436-5582036-6110872-7369088-7188044-5935872-5400808
0,word-count,rep3,10,2113706878,2120839706,0,0,1868740-1623956-2661320-1321136-1623824-1359576-2152412-792648-3473188-811912-812052-528648-2152200-1662468-302808-2680556-1604508-1076292-2152820-1623984,1868780-1623820-2661364-1321288-1623868-1359576-2152632-792640-3473188-811920-812012-528720-2152208-1662356-302944-2680676-1604552-1076184-2152672-1623808,1873228-1628036-2665388-1330776-1627696-1364620-2157652-796652-3480432-821192-819668-534224-2160104-1668792-307536-2683500-1607720-1083444-2158036-1632104,1873540-1628252-2666192-1331204-1628068-1364932-2158024-798244-3481020-821408-820804-534396-2160260-1668604-308816-2684504-1607876-1083432-2158004-1632536
0,word-count,rep3,20,1894612886,1901873474,0,0,5039804-1888152-3189712-3511704-1926724-4020808-2719140-2661292-3737580-4020808-3718280-2964040-3511892-4323768-2983340-2397096-2454924-2945208-4342820-2210376,5039700-1888048-3189796-3511784-1926820-4020888-2719144-2661644-3737624-4020996-3718316-2964072-3511876-4323844-2983452-2397136-2454988-2945144-4343016-2210164,5049732-1900388-3195176-3517672-1936860-4025292-2725852-2671576-3750600-4025712-3724880-2972532-3517884-4328840-2988400-2405320-2460608-2951320-4350336-2220576,5050044-1900388-3195700-3518200-1936832-4025292-2725664-2671576-3752116-4025712-3725220-2972152-3517884-4328840-2988400-2405320-2460228-2951320-4350336-2220576
0,word-count,rep3,40,3704132902,3711039939,0,0,6701840-7268260-7835192-6211476-7230020-4569012-8305804-6269280-6211520-5097060-6154408-6682076-6701312-6437368-5928248-6173980-7268260-6172956-5966584-5947280,6701600-7268356-7835456-6211872-7230256-4568672-8306032-6269488-6211540-5097068-6154440-6682128-6701640-6437656-5928508-6173884-7268704-6173084-5966628-5947536,6713536-7277416-7843188-6225784-7238260-4579564-8314036-6277696-6224332-5104252-6167164-6692324-6706804-6445248-5944500-6183388-7277428-6185888-5986548-5956848,6714168-7278048-7843000-6225996-7238260-4579564-8314036-6277696-6225888-5104252-6167660-6692324-6705144-6445060-5944500-6183360-7277428-6184388-5986548-5956848
0,word-count,rep3,80,6418016720,6423476785,0,0,12043096-13119144-10967040-13383324-13028472-14819952-11025620-16025288-12708024-11971612-13216096-14008056-10232240-15723340-14801504-11121392-14987768-10573932-11798180-12706540,12043324-13119492-10967496-13383696-13029888-14820180-11024952-16025888-12708052-11971840-13217076-14008448-10232488-15723524-14801356-11121564-14987912-10573976-11798520-12707096,12050292-13134208-10974256-13392444-13047756-14834704-11037232-16043224-12718324-11984152-13243356-14028300-10245636-15739188-14814496-11137776-15007564-10598944-11812836-12731228,12052928-13137732-10976236-13393164-13048568-14836732-11037044-16043224-12719360-11984152-13243356-14028300-10245636-15739188-14814496-11137776-15007564-10598944-11812836-12731228
1,sorter,ec,10,37224840346,37225857891,0,0,706140-705752-1235120-1234916-353004-882220-1059012-705796-1059040-176952-1059004-706600-705992-1058688-353040-705964-1058676-1058836-706168-353216,706036-705736-1234992-1235092-353080-882220-1058948-705800-1058944-176804-1059084-706416-705992-1058696-353044-705992-1058748-1058904-706164-353048,1679824-2037880-2271020-2223752-1141328-1716388-1837828-1840620-2149004-1154168-1891096-1295392-1636680-1600092-704816-1199692-1698240-1451948-1295892-991208,1680524-2038304-2271220-2224888-1142324-1716008-1837724-1841008-2148992-1154696-1891096-1296576-1636724-1600304-704332-1198760-1698240-1451648-1295736-991380
1,sorter,ec,20,74012820488,73998935306,0,0,1764560-882684-1940780-1411988-2293740-176744-1941300-353188-1941336-1764772-1765028-1765612-1765064-1588092-2117268-2645660-1588296-176748-2117240-1764824,1764644-882472-1940896-1412172-2293856-176604-1941408-353152-1941400-1764636-1765280-1765528-1765092-1588208-2117440-2645764-1588228-176772-2117148-1764972,3641260-2448264-3512716-2895684-4351116-1849016-3124236-1829312-3706548-3344508-2941236-3722308-3548596-2953168-2810776-4695744-3550260-2038948-3680468-2953432,3641516-2447300-3512728-2896372-4351100-1849016-3124284-1829312-3706040-3345712-2940856-3721976-3548552-2952852-2810776-4695224-3550260-2038948-3680468-2953116
1,sorter,ec,40,148889348103,148862881237,0,0,2646932-4059212-3352392-3881008-2646980-4587920-3881764-1411664-2471260-2999172-3882516-2824044-3705600-3175908-3177164-2823636-3175872-3705836-2117948-2999640,2646872-4059404-3352848-3881260-2647044-4587928-3881960-1411740-2471168-2999320-3882680-2823748-3705796-3176180-3177076-2823560-3176128-3706120-2118032-2999960,6559184-7973264-6488904-6820804-5401508-8113604-6834276-5342976-5052628-5542320-6824484-5362900-5874672-6705432-6109168-6365888-7297500-5854628-5479164-7115340,6560636-7977504-6489992-6822240-5402580-8113288-6835380-5343616-5055064-5543560-6824484-5362900-5874672-6707260-6109168-6365944-7297500-5854628-5479164-7117992
1,sorter,ec,80,296817821601,296657049282,0,0,2470868-2470524-7940772-7940756-6528368-7410012-6351704-7234784-2470408-5999340-7235992-6881920-6529316-6529996-6352748-9351508-7763736-6881644-6352452-6352752,2470720-2470184-7940852-7941936-6528964-7410180-6352300-7235372-2470704-5999712-7236096-6882256-6528900-6530044-6353056-9351680-7763976-6881968-6353380-6353176,8261464-9759460-13590064-14260092-13879700-11800148-11952268-14868580-9300292-12304512-14166636-14032148-12658044-13172824-11320160-16146384-15245972-13029848-12261056-12207580,8261016-9759144-13591896-14261160-13881524-11800148-11951952-14868580-9299800-12304464-14166184-14032148-12658044-13172824-11320160-16146020-15245972-13026876-12261056-12207580
1,sorter,rep3,10,34356457258,34361814460,0,0,2115448-1587040-1855176-2117552-1588900-1855052-2115480-1853068-1589076-1855108-1849464-532112-2113796-796368-267908-1585372-2114228-2113660-1589056-267916,2115596-1587156-1854904-2117576-1588984-1854900-2115476-1853208-1588892-1854940-1849484-532112-2113756-796440-267872-1585408-2114092-2113664-1589092-267908,3652028-3014380-4075560-4221860-3249540-3380152-3359856-3575100-3379444-4204996-3660532-1183148-3884756-1702376-1230844-3552496-4156624-3812064-2225272-2004232,3652316-3014888-4076396-4222300-3250504-3381224-3360216-3575664-3380184-4205532-3660888-1183288-3884852-1702676-1231164-3553120-4157040-3812924-2225664-2004592
1,sorter,rep3,20,68477806764,68435897879,0,0,2644000-3174460-3443704-2645856-3174408-2645820-2917080-2381684-3704276-4757436-3970444-2914248-4229008-3704248-1594332-3440048-3704476-2913468-2911648-2649436,2643920-3174148-3443952-2645804-3174352-2645888-2917128-2381720-3704420-4757548-3970364-2914208-4229288-3704316-1594400-3440120-3704556-2913504-2911868-2649372,6759560-7036600-6267048-5971100-5869348-4868480-5388116-6297868-6662464-7323408-8119852-5770356-8516452-6485356-5350740-5557120-6486012-4562176-6840328-6926360,6760324-7036860-6267304-5972896-5870140-4868488-5387724-6298308-6662704-7323412-8119672-5770360-8516460-6485360-5350748-5555932-6486012-4562180-6840340-6926372
1,sorter,rep3,40,134449652273,134396979938,0,0,6351812-6617648-5819660-7142956-6087448-7665360-6612212-6890932-6085872-5025744-5818176-5566612-7144272-6881844-5559096-5825264-7147244-6083844-6091268-6619484,6351788-6618264-5819696-7143140-6087588-7665508-6612468-6891100-6085824-5025484-5818212-5566740-7144288-6882228-5559308-5825196-7147128-6083952-6091856-6619588,14505948-12582252-12309852-12425348-16726444-15158920-11287660-15960076-10166104-13170932-8488904-14885632-10575264-11200860-12934188-12122584-15087360-10253212-11055408-13191768,14508624-12583180-12312616-12427716-16729340-15160496-11289996-15961236-10164812-13171828-8489736-14886096-10576984-11201324-12935812-12123512-15087824-10253956-11056652-13193012
1,sorter,rep3,80,272220193555,272160592130,0,0,12177240-13229840-12437224-12969252-12703816-12435424-12976664-13756392-11905808-13493988-13497616-14553004-15864740-11646476-12703476-11390140-9533260-13238732-12965636-10591472,12177628-13230172-12437472-12970336-12703760-12435772-12976732-13756640-11905680-13494124-13498624-14552980-15864888-11646804-12703928-11390952-9533436-13238844-12965872-10591712,21903368-27663876-18581512-23519492-25084920-28865232-31566216-26732136-24852588-36341048-24083500-24533072-34297404-23754992-25110180-21287432-28011316-20516164-23870620-17594864,21908984-27668396-18582200-23520880-25091656-28869988-31570436-26733288-24856840-36342956-24084452-24533756-34297404-23755676-25112760-21288588-28012688-20520288-23873340-17598116
1,word-count,ec,10,12168439551,12173750909,0,0,897616-718552-179904-1076148-359212-898124-1077484-1076508-717448-1254100-538524-717556-717352-1255692-716480-1077456-718008-272-718348-1436840,897684-718564-179792-1076184-359348-897948-1077560-1076464-717440-1254068-538464-717548-717308-1255720-716480-1077272-718000-52-718528-1436736,905468-727028-188444-1085688-370968-903512-1086184-1082636-724876-1261764-553608-719104-729296-1260728-725008-1087020-724400-9356-723920-1445144,905900-727448-188628-1085904-371460-903600-1086400-1083648-725152-1262256-554404-719104-729296-1260804-725008-1086912-724400-9356-723920-1444344
1,word-count,ec,20,23290506527,23293107920,0,0,358392-1256424-1974360-2153888-1614876-180004-1972448-1793620-2332428-2152876-1795192-898128-2153548-1794440-2332440-1975052-1974872-359408-1613808-1613672,358204-1256560-1974432-2154068-1615172-179864-1972444-1793444-2332500-2153012-1795064-898192-2153660-1794480-2332340-1975144-1974944-359544-1613944-1613504,367232-1265488-1980212-2158000-1622716-188564-1982888-1798404-2344340-2161584-1803560-907376-2165408-1799036-2343416-1986080-1987476-369692-1620296-1630192,368504-1265848-1980212-2157808-1622716-188564-1982888-1798396-2343924-2161584-1803172-907376-2165408-1799036-2343408-1986072-1987476-369692-1620296-1630192
1,word-count,ec,40,46972020428,46968765878,0,0,359380-3409852-3945572-3587940-3586740-2511372-4307452-3947948-2332784-3947260-3411436-3050048-4306384-359372-3231372-3767864-3588768-3229960-3407812-4307092,359332-3410344-3945336-3587968-3586796-2511584-4307596-3948092-2332980-3947136-3411064-3050236-4306556-359452-3231388-3767768-3589264-3230472-3408068-4307236,366736-3417604-3953072-3597300-3591440-2527104-4319836-3955312-2343756-3953544-3423308-3058592-4319212-367448-3244376-3776636-3600044-3238268-3418884-4318396,369004-3418408-3954360-3597940-3594188-2528896-4321300-3956484-2344884-3955504-3424728-3059760-4319352-368540-3245036-3777296-3600044-3240608-3419200-4318396
1,word-count,ec,80,94402111407,94393556419,0,0,5921536-7353776-6279964-5922140-8433340-6819604-6813524-6638128-6637932-7895976-5385192-4665056-6285216-6998240-5382452-6822340-6275488-5563028-6999216-6097324,5921628-7354088-6280048-5922380-8433416-6819912-6814676-6638432-6638324-7896576-5385784-4665192-6284772-6998480-5383396-6821816-6275968-5563508-6999180-6097532,5934784-7371284-6291916-5934832-8448096-6833824-6830776-6648936-6650828-7915096-5399144-4676212-6303624-7013784-5397064-6835120-6291880-5578340-7012352-6108816,5934784-7371096-6295784-5935644-8449584-6834636-6830728-6646024-6650416-7915096-5399144-4676212-6303624-7013784-5397064-6835120-6289000-5578104-7012352-6108580
1,word-count,rep3,10,757796619,764892662,0,0,2132908-1868696-1623956-1359624-1624120-2719408-2435632-2397104-1868732-1907848-1624020-1321076-1095424-1056872-1321040-1379368-1359716-1321032-812100-1056880,2132984-1868740-1623848-1359620-1624168-2719348-2435712-2397276-1868736-1907732-1624032-1321044-1095420-1056872-1321068-1378856-1359688-1321036-811988-1057016,2139056-1875040-1631332-1369140-1628236-2727940-2441204-2405568-1871148-1910120-1629728-1323440-1099864-1066264-1330320-1385204-1368000-1324616-819916-1062652,2139332-1875040-1631332-1369312-1629072-2728096-2441204-2405568-1871304-1909328-1629884-1323440-1100700-1067100-1330476-1385348-1368000-1324616-819916-1062652
1,word-count,rep3,20,2222992467,2230054842,0,0,1643248-3473364-3492636-2964272-4078632-3737340-2964068-3756620-3982484-4774896-2152404-2719444-2171436-3247880-2435640-2700048-3550268-3737340-4285756-2699872,1643300-3473272-3492704-2964316-4078756-3737496-2964176-3756764-3982520-4775252-2152292-2719148-2171620-3247532-2435744-2699948-3550592-3737424-4285640-2699976,1647712-3479924-3499836-2970240-4084716-3740356-2972076-3763680-3994568-4779760-2163900-2728832-2180984-3257356-2440852-2706224-3558692-3745284-4293452-2708640,1648420-3481268-3500144-2970592-4085152-3741212-2972696-3763948-3994920-4780028-2163900-2728832-2180984-3257356-2441160-2706224-3558960-3745284-4293452-2708640
1,word-count,rep3,40,4010908781,4017338688,0,0,5399652-4929204-7250080-5419292-6759368-6720628-7210680-6739868-5399624-5606172-5438792-7306804-6701348-8061088-7738824-8003336-7777416-5361060-5683092-5625608,5399884-4929228-7250020-5419152-6759624-6720792-7210568-6740376-5399884-5606624-5438684-7306936-6701512-8061180-7738964-8003168-7777572-5361328-5683224-5625772,5411840-4936952-7257672-5427260-6765600-6735748-7220928-6750820-5406480-5612224-5448020-7318056-6710260-8069396-7747772-8015604-7787028-5374400-5692444-5632680,5413868-4941560-7257004-5427896-6767224-6737140-7223876-6752088-5407472-5612224-5448300-7318552-6710260-8071080-7748188-8016596-7787524-5375664-5694008-5630796
1,word-count,rep3,80,8326402181,8332119248,0,0,14613572-9723536-13196844-14969108-13647712-12668016-13666964-13479688-14478684-12404236-12650208-11044720-12893456-10496640-13821188-12706408-11533976-13950256-13724588-12590752,14613700-9723568-13197316-14969616-13648508-12668904-13667040-13480052-14478900-12404472-12650348-11044232-12893836-10496916-13821212-12706740-11534676-13950624-13724740-12591340,14624308-9742016-13201592-14981008-13661376-12692092-13679544-13496032-14494680-12410868-12670028-11058544-12907552-10513044-13831644-12728156-11544656-13965316-13735356-12607804,14626364-9743204-13203584-14983040-13662604-12692624-13685916-13500448-14496324-12414336-12671044-11061368-12908568-10513044-13831644-12728156-11548160-13965316-13735168-12607568
2,sorter,ec,10,36775801982,36778173354,0,0,1058688-1058952-176748-1234976-529488-705716-1588592-176748-529224-705752-882476-883040-705964-353136-529516-706204-1059128-1058952-1235136-705700,1058852-1058996-176572-1234968-529492-705700-1588616-176564-529264-705520-882508-882936-705956-353208-529704-706036-1058980-1059000-1235172-705740,2282332-1750936-1107104-2121140-1560568-1740616-2478832-713792-1219720-1098940-1471700-1575352-1396696-1141120-1322872-1494380-2090156-2041096-1773560-1442192,2281840-1751296-1107104-2121352-1560780-1740616-2478796-713688-1218824-1099140-1470576-1575352-1396696-1141120-1322872-1494380-2090156-2040164-1773560-1442192
2,sorter,ec,20,74205307432,74177699061,0,0,1588376-1235176-2294032-2470120-176740-2117468-1941080-2116788-1588324-1764560-1235308-1411880-1058956-1411556-1411816-2117776-2294420-1411820-353364-1765356,1588540-1235220-2294144-2470108-176636-2117536-1941152-2116820-1588208-1764672-1235376-1412112-1059192-1411700-1411712-2117948-2294284-1411716-353252-1765260,3753580-3202916-3971460-4242080-1471944-3884836-3422580-2796948-2466624-3038928-2909568-2989464-2238240-2786248-2976884-4267968-4348536-3276496-2313948-3236724,3753220-3202944-3972744-4243364-1471408-3884836-3421360-2796948-2468112-3038928-2909552-2989132-2238240-2786248-2976884-4267968-4348536-3276180-2313772-3236408
2,sorter,ec,40,148809188974,148771004861,0,0,3352356-3176476-3529428-3176152-2999136-3706296-3529320-3176372-4940576-3176372-3529080-3529072-2117820-3351860-3529428-3001380-3352904-529708-2646616-3176120,3352480-3176624-3529324-3176320-2999424-3706392-3529464-3176444-4940560-3176808-3529148-3529288-2117968-3352084-3529640-3001048-3353004-529740-2647188-3175864,6674576-6529444-5690568-7297980-6143032-8212908-6470904-6117472-7506200-6128452-7291972-6861156-5660108-5488392-5486652-5936072-7092884-3858896-6352152-6320856,6677576-6530972-5691584-7298668-6146424-8213380-6471836-6117472-7505352-6129856-7294932-6861780-5660108-5488392-5486652-5936696-7092884-3858896-6352152-6320856
2,sorter,ec,80,297186776355,297049413267,0,0,7940736-6882164-7412028-7234332-8292084-6881392-8116140-7764040-5999296-7938968-5469856-5823216-5648164-5470844-5999228-6353432-6705916-2823652-5647440-2646668,7941912-6882948-7411928-7234436-8292464-6881964-8116368-7764284-5999604-7939296-5470060-5823848-5648052-5471432-5999600-6353276-6705504-2824032-5647648-2646684,13917440-14229384-11218064-14677264-13208000-14077724-15823680-14138360-11637188-12948408-13458924-11442940-12862156-11318780-12021636-11712300-12753664-10797352-11382728-10548164,13920708-14230248-11227492-14679284-13207832-14078056-15823680-14141288-11637960-12952112-13466704-11445616-12862156-11321384-12022288-11714004-12757636-10797356-11382732-10547848
2,sorter,rep3,10,34669848630,34671457911,0,0,1322940-1324664-2119160-2115856-1588868-1589064-3172260-1587252-1589064-2643824-1588896-1585468-1855516-1587084-792644-532104-1322948-796412-796484-1851244,1323052-1324728-2119140-2115520-1588912-1589100-3172344-1587148-1589048-2643900-1588852-1585472-1855300-1587040-792836-532108-1322952-796372-796300-1851280,3347016-2765872-3049464-4078408-4315544-2506460-5436424-3204380-3178872-4744464-2325448-3889644-2753120-3087688-2733000-1733564-3092392-2499088-1769920-3022176,3346596-2765752-3050404-4078448-4315920-2506872-5436636-3204256-3179276-4744144-2325652-3890200-2753120-3087376-2733676-1733772-3092384-2499096-1769924-3021796
2,sorter,rep3,20,68153103874,68141977792,0,0,2649296-2647628-2909868-2908232-2908060-3443844-2115672-3968620-3972060-3175848-3974032-2649296-2645688-4234436-3706636-2645648-2647500-4231220-2911656-3174408,2649412-2647732-2909920-2908108-2908380-3443740-2115580-3968652-3972144-3175916-3974224-2649344-2645896-4234528-3706468-2645756-2647572-4231096-2911696-3174700,7197980-5681168-6156940-7383332-5606668-7408332-6559152-6554320-6575392-5911132-5759032-5293696-5284604-6847156-8630768-5275664-5942792-6594688-5297992-7086812,7198992-5681436-6157388-7384268-5607384-7409272-6560076-6554916-6577216-5911648-5760036-5295348-5286044-6847692-8631036-5275924-5942796-6594948-5298248-7087056
2,sorter,rep3,40,134371939477,134318096528,0,0,3978752-6612868-6348180-8199428-5823440-5034584-7404992-7144280-5555632-5030696-5819648-7412036-6876424-6881844-5828672-5032684-6883656-8202860-5555764-7410280,3978532-6612668-6348212-8199352-5823848-5034472-7404864-7144808-5555764-5030908-5820132-7412180-6876604-6882036-5828944-5032728-6883920-8203088-5555888-7410372,11173952-12560140-13051948-17028648-14527720-8736392-15833500-11166404-14408080-9761532-14062088-12871324-12095168-11935624-10177220-13518456-14110700-14203624-9629404-13259144,11174880-12561436-13051900-17028648-14527488-8736392-15835712-11166404-14408068-9761504-14062088-12871324-12094832-11935624-10177220-13518460-14110704-14203624-9629404-13259144
2,sorter,rep3,80,271709559416,271629601405,0,0,14552640-13233420-11905856-10597140-12441704-12434224-15606352-11380468-12971064-17712080-13233420-11648456-13767452-11912672-10586252-12433592-13231460-12189332-11903388-10329272,14552848-13233804-11905456-10597368-12442064-12434688-15606492-11380680-12971536-17712820-13233800-11648384-13767624-11912572-10587260-12433848-13231368-12190432-11903884-10329448,24139680-23375632-20706904-29753684-22438296-20842352-26986084-26483528-25108548-37380620-30403476-18823176-29041652-22665344-19729608-22346464-23617936-24007448-30748276-29615084,24140088-23377104-20708056-29755616-22439888-20843692-26989548-26483528-25109124-37377540-30403276-18823176-29041652-22665344-19729608-22346456-23617940-24007448-30748280-29615104
2,word-count,ec,10,11851834366,11855584561,0,0,539016-897948-1075428-896216-180136-897232-717996-1255000-538812-896888-897748-897884-1075420-897956-717324-898088-897020-897720-539016-538768,539048-897948-1075468-896272-179732-897268-718000-1255064-538804-896916-897868-897644-1075568-897984-717312-897912-896980-897612-538840-538916,547716-902296-1082364-903848-192080-909856-726656-1264160-546664-904996-907424-908060-1086872-904108-724704-909204-901656-902768-544420-546164,547716-902608-1083148-902652-191920-909856-726812-1264160-546664-905212-907424-908060-1086872-904108-724704-909016-901656-902768-544420-546164
2,word-count,ec,20,23536832065,23536073085,0,0,1434740-2333716-1613128-1436328-1615876-2869636-1256768-1077664-359076-1794404-358344-2331064-1973732-1973876-2512700-1614544-359416-1795980-1794248-1794652,1434848-2333572-1613156-1436404-1616196-2869504-1256796-1077764-358928-1794516-358276-2331164-1973636-1973916-2512808-1614648-359308-1795920-1794216-1794924,1444348-2341228-1619916-1450064-1625696-2873932-1265436-1084352-368132-1802116-366936-2334072-1978152-1982028-2523552-1626096-364616-1805988-1806300-1805600,1445164-2341948-1620616-1452296-1626328-2873340-1266340-1085256-368308-1802660-367568-2334500-1979048-1982660-2525396-1626440-364616-1807832-1806932-1805960
2,word-count,ec,40,47133448427,47132947683,0,0,3768368-360044-4127484-3769056-4306692-3766528-3408844-3944804-3768856-1976436-3589132-2867780-3231676-359416-4124592-3946064-3052796-3408852-3589836-3229148,3768668-359584-4127328-3769088-4306780-3766736-3409388-3944996-3768732-1976232-3589224-2867920-3231896-359324-4125008-3946104-3052920-3409092-3590176-3229396,3782600-368224-4138284-3780388-4309640-3779324-3419512-3956168-3778908-1979812-3596476-2876120-3240112-375728-4137360-3957900-3064536-3424124-3600344-3243456,3782600-368444-4138792-3780388-4310660-3779324-3419248-3956168-3779416-1980680-3598872-2876120-3240112-375728-4137360-3957900-3064536-3423760-3600344-3243456
2,word-count,ec,80,93801791648,93791112812,0,0,7894072-8251144-6458848-7710692-3411728-6281372-6458400-7716852-8787760-5922020-6460920-6461440-6461172-6101428-6640492-6640844-2690064-6102292-6101416-6636508,7894160-8251600-6459072-7710812-3412152-6281564-6458392-7717020-8788116-5922008-6461364-6462364-6460688-6102128-6641060-6641180-2690956-6102460-6101780-6636096,7903056-8271112-6468740-7724536-3433420-6296548-6465640-7726912-8793096-5932664-6481568-6473220-6475860-6122052-6651196-6660308-2707464-6119236-6113416-6645556,7905720-8273876-6468740-7726244-3434500-6296548-6467944-7726912-8797092-5932664-6481520-6470168-6475860-6122052-6651196-6659944-2707276-6119096-6113416-6645556
2,word-count,rep3,10,1306439915,1313528075,0,0,2152376-1378952-1604536-1849644-2416608-1887968-1604508-1623816-2435880-1623780-1076324-1888144-812028-1095380-1907292-1321164-1340440-1341124-1340324-1585264,2152448-1379072-1604616-1849640-2416500-1888124-1604576-1623848-2435708-1623812-1076184-1888116-811952-1095380-1907252-1321172-1340476-1340724-1340308-1585272,2158792-1386480-1611464-1855248-2420172-1894652-1613236-1628120-2447036-1628460-1084224-1892980-820976-1098624-1911396-1328884-1346484-1343068-1343716-1595840,2159716-1387128-1611852-1855508-2419972-1894640-1613500-1628812-2447788-1628720-1085020-1892776-820964-1099424-1911656-1328884-1346288-1343068-1343716-1595828
2,word-count,rep3,20,1918426614,1925525758,0,0,3473364-2964776-4304284-2964200-3228256-3737340-4246628-3266980-5096908-3795200-3209132-2964236-2964068-3492424-2699872-2455328-2719340-2171472-2416580-2397276,3473432-2964612-4304328-2964288-3228376-3737492-4246784-3266952-5097068-3795268-3209028-2964140-2964148-3492492-2699944-2455464-2719220-2171516-2416484-2397412,3477900-2970912-4309040-2971676-3234728-3743696-4257892-3275044-5105620-3803488-3217420-2970880-2976688-3497640-2704120-2463776-2725780-2176988-2422704-2405044,3478484-2971768-4310520-2972456-3234624-3745272-4258120-3276180-5106248-3803760-3217860-2973072-2977272-3497912-2704476-2464012-2726324-2177260-2423196-2405672
2,word-count,rep3,40,3524437319,3531506594,0,0,5644716-5928008-6797720-8022608-6720936-6134376-6250008-7532480-5116488-7230456-5097084-5077796-5135456-5554032-6475680-6928012-7738860-8041620-6946424-6759176,5644672-5928208-6797756-8022888-6720940-6134640-6250272-7532968-5116408-7230300-5097256-5078004-5135484-5553912-6475868-6927948-7738908-8041780-6946888-6759400,5655284-5935416-6804204-8031884-6728508-6145848-6261680-7541216-5127444-7243708-5102480-5091868-5142908-5563136-6486676-6940212-7755336-8050772-6955736-6770012,5655780-5937044-6805196-8034332-6729008-6147800-6261472-7540024-5127504-7245572-5102788-5091868-5143404-5561636-6486676-6942164-7755336-8050360-6955736-6770012
2,word-count,rep3,80,5729051489,5734228729,0,0,10290100-13931616-13441180-14272264-13724988-16740816-11875272-11514840-13234740-12442572-13970788-9555288-11271420-12384540-12120160-12687084-12668012-13138404-14253016-14743496,10290296-13931236-13441268-14272772-13725152-16740916-11875472-11515280-13235008-12442856-13970996-9555768-11271548-12385044-12121380-12687464-12667952-13138772-14253132-14744444,10305500-13946084-13458916-14280924-13744688-16756148-11884592-11534524-13252840-12454956-13988516-9573396-11276760-12399652-12139984-12706288-12684660-13159740-14276040-14756572,10307740-13946084-13458916-14279280-13748200-16756960-11884544-11534348-13252604-12454720-13989144-9573396-11276572-12399652-12139984-12706288-12684660-13159704-14275648-14756572
3,sorter,ec,10,37152259988,37149656057,0,0,530124-705812-1058856-1234984-176712-529728-1058652-1058916-1235084-706140-882476-1058952-1058944-882564-705452-1235428-236-882468-529268-353340,529948-705780-1058700-1235016-176564-529756-1058692-1058980-1235124-706036-882476-1058980-1059068-882504-705528-1235516-52-882520-529264-353288,1359284-1492668-1893260-1920964-1057660-1609392-1992912-1795448-2164448-1049636-1677068-1847108-1844896-1769032-1589080-2073084-646988-1724932-1320380-987488,1359792-1493132-1893936-1920748-1059016-1609816-1993196-1795848-2164596-1049848-1678716-1846756-1844896-1769452-1588936-2073084-646656-1724328-1320204-987488
3,sorter,ec,20,74157717889,74149611037,0,0,1764996-2117556-1588288-1587608-1764312-1941344-353348-1764736-2117724-1941352-1411388-1764712-1764356-1588128-1058948-1411352-176916-1412624-2294164-1941072,1765096-2117652-1588196-1587656-1764508-1941420-353080-1764636-2117788-1941408-1411460-1764416-1764412-1588192-1059072-1411664-176920-1412496-2294492-1941116,3729896-3399768-2871032-3060768-3922820-3717492-1814284-3341312-3291180-3732604-3093784-3234888-3531648-2962456-2716528-2781592-1930628-3078840-4350568-3025380,3730596-3400012-2871384-3061728-3923464-3718100-1814596-3342412-3291256-3734244-3094276-3235200-3532348-2962456-2716880-2781592-1930976-3080120-4350060-3025380
3,sorter,ec,40,148821231520,148786401863,0,0,3706096-3529428-4234468-3882028-2822908-4410992-706168-2118220-2294444-2999852-2822432-3883364-2823420-2647000-3352848-4410984-3705544-2470516-3705848-2999640,3706260-3529636-4234596-3882228-2823036-4410872-706216-2117848-2294376-2999984-2823036-3883392-2823932-2647216-3352988-4411136-3705680-2470672-3706036-2999772,7052964-7469616-6600232-6424552-6145604-6557028-4032248-6046172-6040004-5340392-4592372-7794928-5380096-6970064-7076800-6971856-6863060-6013624-7437188-6306708,7054908-7469744-6602140-6425904-6145780-6556772-4032720-6047880-6042036-5340384-4593308-7797140-5381752-6970792-7077268-6974948-6863480-6016156-7437192-6306220
3,sorter,ec,80,297381300733,297272911906,0,0,7409552-8116468-6882124-6705284-1941276-7057576-7058612-7234052-6882864-6177336-5823292-7588836-3529088-5823044-6175232-6352876-7763956-7058296-7234808-4235032,7409872-8116796-6882364-6705120-1941432-7057824-7059660-7234280-6882520-6177580-5823412-7589932-3529572-5823424-6175684-6353172-7763988-7058424-7235132-4235104,14481132-15238776-15283948-12188984-10709732-14078492-13844284-11209716-13810188-9849068-11784764-14150380-9966056-13004536-13925404-11184956-13862632-12149228-13351020-10138600,14482160-15239152-15284600-12189648-10711452-14078444-13844284-11211228-13810188-9848892-11784764-14150332-9966056-13004536-13925404-11184956-13862632-12149228-13350928-10138600
3,sorter,rep3,10,35506246818,35507742489,0,0,1590876-2379628-1855080-1324700-2908072-1587084-2381444-2115568-1322956-1855072-2115432-1062492-2115480-532068-530260-1321136-1058892-1326688-1321344-1057484,1590704-2379704-1855156-1324812-2908100-1587156-2381520-2115472-1323052-1855140-2115504-1062344-2115440-532104-530260-1321136-1058688-1326516-1321276-1057296,3425980-4331220-3081068-2369408-3523468-4081320-4699928-3707240-2847836-3336140-3547324-2193172-3920984-3042704-1905596-2477704-3152908-2829364-2741876-2316032,3425964-4331848-3080804-2369768-3523320-4081204-4700344-3707452-2847524-3336912-3547532-2193896-3921180-3042708-1905284-2477684-3153092-2830080-2742580-2316240
3,sorter,rep3,20,67281806390,67280278672,0,0,4230848-2646424-3175888-5025416-3700820-2115812-3964812-2913844-3709852-3175884-3704276-2381616-2385068-2908232-3440044-3175884-2383292-3708068-1332144-3441864,4231176-2646376-3175932-5025476-3700816-2115880-3964888-2913536-3709748-3176136-3704424-2381596-2385176-2908168-3440164-3175884-2383372-3708012-1332184-3441932,7202680-6604712-4915528-9384424-7379616-5662796-7183632-5762300-7397992-4717264-6578728-5852612-4636552-6269176-7913260-6625628-5479912-6488820-3990164-7001988,7202940-6606684-4914884-9386404-7380900-5663268-7184016-5762752-7399964-4717464-6579660-5853660-4636816-6269836-7913568-6625636-5479784-6490140-3990976-7002372
3,sorter,rep3,40,134158502947,134105375211,0,0,3977488-5555424-7142420-6350344-6617864-6348216-5291748-6619496-5030688-4234660-7667228-6615872-7413884-7674768-6351860-7677284-5555740-6348256-6357064-8206436,3977628-5555504-7142616-6350348-6618516-6348660-5291996-6619528-5030916-4234568-7667452-6616100-7414012-7674620-6351964-7677164-5555500-6348144-6357332-8206784,13060320-10396588-15283068-13633780-12315300-11055572-11688336-14419848-13808704-13486456-13321388-12106628-13380840-13275344-10657732-12514884-9488016-12830488-11718532-15652164,13061448-10397524-15285836-13635180-12318112-11056512-11689928-14420328-13809176-13487584-13322328-12108452-13381780-13275820-10658212-12514888-9488488-12829972-11720828-15652172
3,sorter,rep3,80,271303738767,271234857950,0,0,13237652-13754600-13238900-12962016-12437300-12971268-10602500-13237660-10327316-12705240-14028472-11110960-11380424-12969232-14017336-12708480-11116468-14545392-12439656-14279356,13238036-13754940-13239000-12962488-12437628-12971856-10602820-13238032-10327876-12705160-14028224-11111776-11380680-12969596-14017416-12708636-11116720-14545716-12440240-14279476,24599604-23710444-21164924-26041796-20595020-30411420-28582232-32153516-18814848-30654204-23693232-21176556-23191716-19899140-26017136-31699124-20568168-32990292-27673060-24535632,24600024-23711864-21167044-26045976-20599436-30415104-28581792-32159504-18816316-30654960-23696868-21178020-23199904-19899872-26017136-31700880-20568168-32990308-27680380-24539492
3,word-count,ec,10,11693577395,11699124578,0,0,1076672-538104-718588-1435956-179800-717308-717448-1076496-896888-1075088-538908-359232-539148-1076756-898160-1255932-1076496-179396-717660-1077484,1076464-538168-718616-1436040-179808-717344-717344-1076528-896960-1075080-538900-359232-538768-1076604-898236-1255912-1076528-179380-717732-1077564,1083772-544632-726724-1438892-189224-725808-723820-1083780-904292-1082212-547596-372116-544820-1085812-905656-1263376-1083956-194080-722328-1085808,1083928-544856-727776-1439944-189596-726052-723992-1083780-904536-1082944-547812-372388-544820-1086028-905644-1263592-1084172-194564-722328-1085608
3,word-count,ec,20,23713396623,23712337424,0,0,1256284-1255696-1972612-1793716-2154612-1615036-1793720-2153932-1972988-1614832-1256728-1256064-2153796-1434604-1615244-359408-2332992-179836-2333708-1794072,1256312-1255804-1972712-1793648-2154328-1614904-1793864-2153996-1973092-1614952-1256900-1256172-2153788-1434696-1615128-359520-2333060-179768-2333532-1794352,1261096-1265588-1975064-1799292-2156952-1626236-1801960-2162308-1985596-1625292-1267212-1269624-2165744-1441328-1625708-370988-2338276-195476-2344408-1801752,1261096-1266492-1975064-1799492-2156952-1626688-1801960-2163456-1985596-1625292-1267008-1269624-2165556-1441328-1625708-370988-2338276-195476-2344408-1801752
3,word-count,ec,40,46997849339,46997917197,0,0,3587068-3410228-3946552-4665896-539300-3768340-3409060-3410252-3587940-3050732-3590160-2872748-3049044-3051432-4124388-3589848-538960-3588444-3768720-3047284,3587740-3410256-3946772-4666176-539284-3768392-3408972-3410284-3587852-3050928-3590320-2873060-3049328-3051668-4124516-3589664-538968-3588336-3768808-3047356,3598012-3421172-3956576-4675480-553816-3781920-3420668-3417872-3600032-3060500-3598424-2885596-3060252-3064872-4134448-3599312-548836-3598520-3771292-3050360,3600368-3421388-3958900-4676788-555124-3782648-3421828-3418884-3600540-3061008-3601436-2886756-3060252-3064684-4134448-3599312-548836-3596600-3771292-3050360
3,word-count,ec,80,93734308155,93725710422,0,0,8614408-7357980-6101756-6820428-4487884-6457800-5561940-6641004-7354492-6994508-6995172-6455784-6640840-5203648-6638660-6102348-4127924-7171964-6460924-6999992,8614688-7358084-6103052-6820620-4488308-6458044-5561720-6640856-7354724-6994820-6995520-6455996-6641060-5203716-6638892-6102536-4128420-7172228-6461512-7000368,8624060-7369552-6112644-6829828-4491424-6467920-5572388-6653904-7371204-7002912-7011340-6471364-6647164-5214848-6650804-6112372-4145788-7182980-6483956-7017892,8625868-7374632-6114708-6834640-4493764-6468288-5576452-6655892-7378576-7002828-7011340-6473072-6651164-5214800-6650804-6117692-4145788-7182792-6484988-7017704
3,word-count,rep3,10,2441561327,2448640526,0,0,2416404-1888180-2171440-1849468-2133432-2435808-1907452-2416368-2190720-1887968-1623984-2680696-528484-547732-811920-1057480-811920-1057020-792868-1076164,2416476-1888088-2171552-1849476-2133260-2435672-1907464-2416404-2190792-1888044-1624016-2680712-528484-547716-812032-1057300-811988-1056872-792740-1076112,2421004-1895880-2178184-1856944-2139740-2442700-1911788-2424988-2195316-1890472-1627384-2688152-534472-557416-820140-1067480-813176-1062608-799900-1081628,2421432-1896060-2178340-1857148-2140100-2442500-1911944-2425764-2195316-1890472-1628160-2688152-534784-557216-821072-1067480-813332-1062596-800056-1081628
3,word-count,rep3,20,1980759015,1987826912,0,0,3189880-4549208-2964024-3511892-3208984-3189692-3228256-2758272-3473356-2719108-3492424-2964200-4285004-2964024-3267376-2190752-3492452-2436436-3473328-3208984,3190072-4549316-2964112-3511740-3209068-3189792-3228300-2757964-3473464-2719248-3492568-2964144-4285196-2964136-3267024-2191008-3492572-2436228-3473260-3209244,3197220-4557588-2972052-3518712-3220628-3194832-3234464-2765012-3482160-2726572-3500244-2969500-4297324-2971184-3272904-2200992-3497896-2442288-3482692-3217448,3197220-4558260-2972052-3518972-3220628-3195148-3234904-2765012-3482160-2727016-3500688-2969944-4297148-2971184-3272904-2200992-3497896-2442288-3482692-3217448
3,word-count,rep3,40,2813229962,2821798282,0,0,3627508-6496016-4890700-6398616-6720620-8080156-6153692-6134552-5870700-8003064-6985424-4813712-6778412-7004088-5418888-7268284-7513184-8118904-4832872-8022544,3627460-6496164-4890956-6398792-6720812-8080252-6153720-6134640-5870592-8003464-6985364-4813852-6778468-7004624-5418952-7268524-7513512-8118864-4832944-8022504,3638240-6506616-4899608-6414676-6727212-8083228-6169192-6145920-5882172-8009976-6998464-4820424-6794020-7016112-5421244-7277216-7526480-8124644-4842448-8032144,3638968-6507532-4899608-6414968-6729336-8084496-6170460-6147328-5882808-8009976-7001296-4820424-6794020-7016112-0-7277188-7526480-8124644-4842448-8032144
3,word-count,rep3,80,6424890251,6430675429,0,0,14175944-14252988-13273524-13326108-11985236-14517416-12442364-10857640-11424540-12216928-14214488-12590732-13422076-11817408-14422456-12404448-11765248-13930984-13138396-12081632,14176408-14253608-13273792-13327216-11985656-14517764-12443132-10857356-11424784-12217084-14214824-12591108-13422220-11817660-14422736-12403996-11765464-13931116-13138892-12081868,14190784-14264852-13286848-13341444-12007976-14534152-12456228-10867492-11439680-12231132-14239352-12601840-13437196-11829796-14434644-12427536-11780660-13946344-13152744-12096044,14194956-14266076-13296080-13346132-12008944-14535328-12456228-10867492-11439680-12230944-14239304-12601840-13436804-11829796-14434644-12427348-11780660-13946252-13152744-12095632
4,sorter,ec,10,37029468387,37025193859,0,0,882364-706008-705832-1235164-705736-353012-1235772-705956-353020-1235180-1058608-1059516-706000-1058908-882308-705940-882484-176808-706168-529356,882224-705992-705832-1235204-705816-353004-1235724-706068-353008-1235152-1058468-1059452-705992-1058944-882256-705744-882580-176600-706196-529520,1856764-1247056-1588956-1818676-1695928-1092664-2111520-1791480-1134848-1968308-1841884-1944072-1294428-1890156-1569076-1646248-1629820-914192-1500596-1275996,1857604-1247828-1588556-1819068-1696136-1093448-2112080-1791836-1135408-1968224-1843116-1944696-1294852-1890156-1569044-1645932-1630244-915424-1500596-1276208
4,sorter,ec,20,74446075511,74434973537,0,0,1411104-1588040-1941460-2117936-1411624-1587996-1764608-1941504-176952-2117716-2293740-1412360-2293748-1588120-176752-2117512-1588340-1235396-1941080-1058948,1411392-1588008-1941400-2118008-1411700-1588140-1764684-1941332-176564-2117864-2294012-1412248-2293968-1588120-176712-2117572-1588276-1235468-1941144-1059036,2980320-3253620-4003220-3789972-2784236-3556876-3634184-3417676-1660000-2705596-4073608-2593052-3865016-3259704-1652044-4178484-3540356-3491060-2624344-2530788,2982200-3254096-4002904-3790228-2785744-3557220-3634528-3417992-1659656-2705596-4073292-2593052-3865016-3259704-1652044-4178468-3540328-3491044-2622936-2530788
4,sorter,ec,40,148107519381,148026046508,0,0,3881776-3353112-3705544-3882032-3528348-3705536-4764512-3529308-4058816-4058544-2999396-2824192-4058532-353184-3352604-3177192-353420-529760-4411212-2999432,3882328-3353172-3705740-3882156-3528408-3705556-4764656-3529264-4058804-4058756-2999580-2824212-4059012-353200-3352664-3177208-353340-529728-4411456-2999580,6635000-5893260-7247772-6421768-7457408-7828452-7522960-5487808-6602108-6995592-6346120-6188364-7408132-4087840-6477456-6721736-3084616-4251624-7550760-6925176,6637392-5893724-7248212-6422784-7459800-7828916-7522960-5487464-6602080-6995592-6346120-6188020-7408132-4087840-6477456-6721736-3084272-4251232-7550760-6924796
4,sorter,ec,80,297850782502,297730375884,0,0,3529552-7059008-8469656-4589032-6883048-6527632-7411040-7057684-6704920-7234712-5999776-5647008-4764428-5999964-6351668-7765400-8116740-7939496-3705512-5293328,3530280-7058700-8470004-4588680-6883548-6528572-7411572-7057832-6705416-7234880-5999988-5647220-4764656-6000072-6352044-7765728-8117060-7939808-3705672-5293720,12708456-14484592-15438708-10079580-12735584-12280160-14158552-13102400-13525104-12841800-11487692-11790416-10303144-13021444-12587692-12751572-13239256-14908856-11316648-11435128,12711716-14487080-15441724-10080392-12735584-12280996-14155340-13102400-13528796-12843544-11487692-11790416-10303144-13025704-12591884-12751572-13239256-14908540-11316332-11435128
4,sorter,rep3,10,34382045858,34382685692,0,0,1855080-2379676-2379628-2117496-2379632-2908064-1323124-2117284-1587044-1587084-1323036-801832-530908-1588948-1851280-1060504-268084-1324964-1321052-1057056,1854896-2379780-2379708-2117336-2379700-2908208-1322884-2117428-1587236-1587160-1322956-801700-530716-1588956-1851240-1060460-268076-1324756-1321152-1057048,3181172-3849304-4643700-3900484-3598128-4361492-3631576-2696120-2562220-2816244-2597320-2574628-1731068-3764236-3555852-3393496-2335784-3295048-3122900-1920436,3181704-3849308-4644096-3901432-3598556-4361700-3631576-2696268-2562412-2816396-2597700-2574800-1731072-3765144-3555852-3393504-2335788-3293952-3123660-1920440
4,sorter,rep3,20,67037306415,67013408620,0,0,3706216-2908224-3706452-2645840-2911864-2119072-2913504-3968436-2909876-4763048-1589044-2910592-2915312-2649264-3438436-2910044-3174064-4496828-2647660-4236296,3706196-2908304-3706092-2645964-2911724-2119172-2913852-3968472-2909984-4763088-1589044-2910428-2915452-2649340-3438544-2909920-3174068-4496908-2647732-4236544,6549132-6421176-6838840-5638948-5467512-5066908-7458044-7807740-5818848-7401404-3994672-5671032-6639308-7826268-6929492-6150016-6587044-6223564-5774408-6794084,6549688-6421404-6839336-5639464-5467548-5068264-7457960-7807828-5818532-7401644-3996124-5670784-6639568-7826276-6928104-6149516-6587672-6223568-5774416-6794092
4,sorter,rep3,40,134691535325,134625542562,0,0,7148200-6882456-5823484-5557608-7140832-5826884-7140628-5560864-6089492-7678044-5557244-5036312-5560100-6083808-6344428-6089604-5030872-6883656-7140608-8461608,7148232-6882608-5823448-5557648-7141032-5827068-7140740-5561180-6089900-7678252-5557428-5036224-5560204-6084208-6344456-6089392-5030848-6883920-7140800-8461724,13106428-11956040-16391140-15690484-15456332-11699896-11184464-10642316-14612668-13229944-12053060-11934620-12615080-11386140-11835164-13471448-10212620-10741188-11848828-14018300,13107360-11956960-16392524-15692732-15458616-11701428-11186320-10643712-14615216-13231336-12055168-11935692-12618376-11386144-11835628-13471916-10212012-10741556-11851312-14020476
4,sorter,rep3,80,272461692465,272412017660,0,0,15336136-10330880-15345184-12446464-11381320-14286580-9803936-12699644-12965604-13233676-11903416-12182904-14284804-14016956-12965592-10321868-11912468-12182112-11387876-15082808,15336380-10331276-15345436-12446980-11380708-14286848-9803964-12699732-12966100-13234012-11903884-12183180-14286128-14017444-12965976-10322208-11912828-12182072-11387940-15083292,22185692-26448596-26733572-31225452-22689848-24929688-32217380-21495944-23462820-21289360-21891656-20831220-31815976-21997168-25284164-26138668-32533788-31337528-20026276-23654024,22191828-26450828-26734304-31227260-22690588-24929344-32219848-21498480-23462820-21290096-21891656-20838212-31819960-22002620-25284164-26139012-32533808-31337528-20026276-23654024
4,word-count,ec,10,12072743952,12076531452,0,0,718656-718340-1075660-897912-1075456-1435056-896888-179668-1256416-180056-718132-1077420-537780-896068-1076856-228-898016-538776-1076120-898116,718508-718412-1075700-898104-1075460-1435092-896964-179660-1256420-179944-718072-1077264-537808-895960-1076948-52-897948-538804-1076112-897988,725372-727296-1079236-900440-1085784-1445212-902336-188624-1272960-186500-724056-1082732-549232-899636-1089736-11600-904468-547680-1083796-907884,725724-727624-1079348-901608-1085888-1445368-902336-188840-1272960-186500-724316-1082732-549232-899636-1089736-11600-904468-547680-1082996-907696
4,word-count,ec,20,23210954576,23214423449,0,0,1434420-1077496-1435636-1616256-359544-2153716-1793748-2153464-1434936-1974012-1616248-1613460-1433300-2332452-1971948-2512572-2153548-359588-1436664-1436880,1434344-1077572-1435784-1616312-359344-2153792-1793788-2153288-1435164-1974120-1616552-1613496-1433196-2332568-1971988-2512700-2153656-359380-1436532-1436912,1440708-1091840-1448364-1624752-372168-2162296-1798528-2160088-1445448-1977024-1623696-1621548-1447244-2338588-1979384-2525240-2161692-371788-1444248-1445916,1441888-1092652-1448364-1626028-371948-2163820-1797624-2160060-1445448-1977024-1623696-1621548-1447228-2338588-1979356-2525240-2161692-371788-1444248-1445916
4,word-count,ec,40,46962691534,46965132347,0,0,4126992-4126852-3769736-4304336-3230828-359412-3409548-3765232-3585368-4306604-3409520-3589452-2332952-3586364-3229308-3768724-3051628-2693300-359380-3590868,4127424-4126936-3769768-4304424-3230800-359460-3409672-3765492-3585512-4306684-3410144-3589564-2332688-3586384-3229452-3768796-3051744-2693428-359332-3590956,4137428-4129524-3777344-4315232-3240488-372964-3421612-3783408-3598696-4316280-3420492-3597848-2341804-3589100-3236352-3778024-3063524-2701340-379188-3600884,4138748-4130540-3778304-4316148-3241000-373628-3421612-3783704-3599360-4316688-3420492-3598068-2341804-3589508-3239160-3777836-3063524-2701340-379188-3600884
4,word-count,ec,80,92684822213,92675139494,0,0,7355916-7532416-8608896-6281344-6817204-7895800-7176808-8073308-8255876-8436208-5918976-6457836-5023556-5743676-6097292-6282360-5027068-6639792-3409376-2155744,7355900-7532200-8609940-6280804-6817696-7895884-7177136-8073616-8256128-8436672-5918976-6458844-5023976-5744124-6097516-6282704-5027308-6640260-3409424-2155884,7359416-7542124-8627920-6292924-6828960-7906400-7189428-8083960-8272028-8448892-5935792-6469824-5040968-5759948-6118432-6292908-5040728-6658284-3430268-2163452,7361040-7543748-8625044-6292924-6828960-7911532-7190336-8085492-8272028-8455792-5935792-6472132-5040968-5759556-6118432-6294228-5040524-6658284-3427372-2163452
4,word-count,rep3,10,920934930,928031232,0,0,548024-1340520-811928-1623788-1623772-811948-1340488-1585236-1623816-2435676-1340444-1849664-2417004-2152216-1604684-2435728-2700076-831488-1076116-2132932,547720-1340308-811952-1623824-1623864-811956-1340380-1585228-1623852-2435744-1340452-1849428-2416856-2152288-1604540-2435812-2700072-831488-1076332-2133080,552028-1347500-819144-1630164-1632064-816068-1346108-1590120-1630632-2438012-1345804-1854772-2426072-2158848-1608848-2444416-2710952-835764-1080056-2137556,553248-1348364-820120-1630548-1632280-816628-1345744-1591564-1630848-2438340-1346584-1854988-2426288-2159524-1609108-2444632-2711080-836888-1079440-2137356
4,word-count,rep3,20,1956719221,1963758440,0,0,3228600-3209000-2719304-2983340-3982300-3473152-3228440-2984100-3776104-2680760-3473188-2945004-3492416-2925656-2512728-2699868-3247712-3473152-4285340-3247500,3228708-3209068-2719296-2983420-3982432-3473232-3228300-2983924-3776012-2680668-3473224-2945000-3492564-2925768-2512800-2699948-3247880-3473260-4285292-3247652,3235748-3213464-2727500-2989668-3991776-3475884-3232696-2992496-3787308-2685836-3480368-2951460-3501116-2938048-2520752-2708400-3252776-3475876-4294256-3255568,3236544-3213732-2728564-2990544-3992404-3476240-3232868-2992544-3789112-2686056-3480632-2951812-3502236-2938404-2522200-2708836-3253028-3475876-4294256-3255568
4,word-count,rep3,40,3240743844,3247479194,0,0,6475696-5870400-6965872-7229752-6475668-6134740-5116148-6418096-5947276-8325068-7474844-4852116-5947288-7287520-4362620-7777368-8571040-6778448-6740108-4381868,6476244-5870460-6965660-7229924-6475892-6134648-5116216-6418192-5947348-8325172-7475100-4852208-5947536-7287792-4362984-7777576-8571076-6778544-6739996-4381956,6485052-5882228-6970056-7243360-6486148-6147024-5126848-6424288-5959104-8326664-7478036-4859520-5957140-7295872-4372364-7788252-8582000-6786348-6748828-4387996,6485688-5884240-6971824-7245724-6487280-6149136-5127988-6426888-5962232-8328152-7479084-4860660-5958332-7297588-4373768-7788984-8583860-6787756-6752184-4389080
4,word-count,rep3,80,6698734840,6704337355,0,0,12442340-11875224-13157668-11159952-12610208-13216144-11347052-15516384-13421868-13705980-14987788-15194176-10779940-11573308-13589684-11179028-13988824-14478648-13538296-10498072,12442420-11875480-13158048-11160240-12611132-13216600-11347332-15516416-13422360-13705592-14988260-15194416-10780264-11573916-13589952-11179372-13989048-14478908-13538664-10498356,12461476-11895588-13168260-11163384-12623016-13226688-11361904-15523496-13440244-13723192-14993492-15211488-10801532-11595936-13604092-11198296-14014036-14492644-13545748-10520984,12462916-11896368-13172360-11164588-12625264-13228336-11361868-15528052-13439832-13720320-14994260-15212928-10805072-11595700-13604092-11198092-14013860-14492644-13545748-10520984
