run_id,policy,job_name,submittedAt,launchedAt,finishedAt,hdfs_bytes_read,hdfs_bytes_written,file_bytes_read_map,file_bytes_read_reduce,file_bytes_written_map,file_bytes_written_reduce,total_launched_maps,total_launched_reduces,num_failed_maps,num_failed_reduces,num_killed_maps,num_killed_reduces,data_local_maps,rack_local_maps,other_local_maps,map_startTime,map_finishTime,reduce_startTime,reduce_finishTime
0,ec,wordcount,1547064131423,1547064136014,1547064190574,22118062640,43362181,1313051740,1005616428,2274782176,1013015822,80,36,0,0,0,0,77,3,0,1547064138303,1547064187871,1547064182355,1547064190529
0,ec,wordcount,1547063900907,1547063906448,1547063955098,11059031320,36643372,655968889,502013664,1135766391,509413058,40,36,0,0,0,0,39,1,0,1547063908732,1547063952378,1547063949734,1547063955043
0,ec,wordcount,1547064383633,1547064388039,1547064456602,44236125280,53276079,2624784885,2009705678,4546442154,2017105108,160,36,0,0,0,0,156,4,0,1547064390320,1547064452141,1547064443479,1547064456548
0,ec,wordcount,1547064686612,1547064691097,1547064819468,88472250560,79920637,5252012583,4023255581,9100451464,4030655011,320,36,0,0,0,0,318,2,0,1547064693372,1547064811616,1547064751598,1547064819413
0,rep3,wordcount,1547065502537,1547065507019,1547065573076,43738059872,55829669,2626056817,2011737418,4550506600,2019136848,160,36,0,0,0,0,157,3,0,1547065509302,1547065568991,1547065561549,1547065573062
0,rep3,wordcount,1547064994346,1547064999791,1547065050560,10934476056,37328004,656301272,502701395,1137144186,510100789,40,36,0,0,0,0,37,3,0,1547065002060,1547065048768,1547065042087,1547065050542
0,rep3,wordcount,1547065237370,1547065241744,1547065297123,21869029936,44212626,1313205172,1006434015,2276354682,1013833409,80,36,0,0,0,0,76,4,0,1547065244027,1547065294320,1547065287057,1547065297107
0,rep3,wordcount,1547065825701,1547065830224,1547065957839,87475497152,77279981,5250725317,4020796935,9095657205,4028196365,320,36,0,0,0,0,310,10,0,1547065832506,1547065950880,1547065890744,1547065957827
0,ec,sorter,1547061624949,1547061629692,1547061687905,22140720560,21511554976,21539487160,21502774496,43022178630,21510186922,80,36,0,0,0,0,77,3,0,1547061631979,1547061661628,1547061640965,1547061687847
0,ec,sorter,1547061883087,1547061887899,1547061999169,44281441120,43023106976,43078974320,43005548992,86044357490,43012961454,160,36,0,0,0,0,158,2,0,1547061890201,1547061930263,1547061900203,1547061999107
0,ec,sorter,1547061414743,1547061419264,1547061450451,11070360280,10755779236,10769743580,10751387356,21511089310,10758799782,40,36,0,0,0,0,38,2,0,1547061421556,1547061433283,1547061429514,1547061450396
0,ec,sorter,1547062224148,1547062228733,1547062511512,88562882240,86046210336,86157948640,86011097984,172088715090,86018510446,320,36,0,0,0,0,318,2,0,1547062231012,1547062307607,1547062242159,1547062511453
0,rep3,sorter,1547063537559,1547063542252,1547063733052,86065899040,86046210336,86157948640,86011097984,172088715090,86018510446,320,36,0,0,0,0,314,6,0,1547063544531,1547063583375,1547063551574,1547063733035
0,rep3,sorter,1547062917433,1547062922032,1547062977087,21516474760,21511554976,21539487160,21502774496,43022178630,21510186922,80,36,0,0,0,0,78,2,0,1547062924328,1547062932889,1547062931318,1547062977071
0,rep3,sorter,1547062685744,1547062691282,1547062726723,10758237380,10755779236,10769743580,10751387356,21511089310,10758799782,40,36,0,0,0,0,36,4,0,1547062693562,1547062702264,1547062699493,1547062726708
0,rep3,sorter,1547063184523,1547063189130,1547063286707,43032949520,43023106976,43078974320,43005548992,86044357490,43012961454,160,36,0,0,0,0,155,5,0,1547063191413,1547063222975,1547063198463,1547063286691
