run_id,policy,job_name,submittedAt,launchedAt,finishedAt,hdfs_bytes_read,hdfs_bytes_written,file_bytes_read_map,file_bytes_read_reduce,file_bytes_written_map,file_bytes_written_reduce,total_launched_maps,total_launched_reduces,num_failed_maps,num_failed_reduces,num_killed_maps,num_killed_reduces,data_local_maps,rack_local_maps,other_local_maps,map_startTime,map_finishTime,reduce_startTime,reduce_finishTime
0,ec-RS-6-3-1024k,sorter,1555454569436,1555454578604,1555454863853,44156348648,42807842696,42862607736,42790362915,85613981496,42797774369,176,39,0,0,16,3,156,4,16,1555454580952,1555454676601,1555454646053,1555454863759
0,rep3,sorter,1555455145722,1555455154370,1555455412700,42812716000,42807792756,42862881360,42790309992,85613875650,42797721446,176,38,0,0,16,2,157,3,16,1555455156666,1555455243173,1555455198686,1555455412641
1,ec-RS-6-3-1024k,sorter,1555455738561,1555455747916,1555456034728,44156348636,42807842696,42862607736,42790362915,85613981496,42797774369,176,39,0,0,16,3,155,5,16,1555455750313,1555455847039,1555455816342,1555456034635
1,rep3,sorter,1555456309397,1555456318053,1555456581983,42812716000,42807792756,42862881360,42790309992,85613875650,42797721446,176,40,0,0,16,4,160,0,16,1555456320337,1555456412886,1555456366421,1555456581924
4,ec-RS-6-3-1024k,sorter,1555459226944,1555459236334,1555459519439,44160542948,42807842696,42862607736,42790362915,85613981496,42797774369,176,40,0,0,16,4,160,0,16,1555459238698,1555459332088,1555459300738,1555459519345
4,rep3,sorter,1555459799147,1555459807938,1555460072142,42812716000,42807792756,42862881360,42790309992,85613875650,42797721446,176,39,0,0,16,3,157,3,16,1555459810293,1555459939355,1555459856994,1555460072082
3,ec-RS-6-3-1024k,sorter,1555458055905,1555458064954,1555458336938,44162640084,42807842696,42862607736,42790362915,85613981496,42797774369,176,40,0,0,16,4,159,1,16,1555458067298,1555458152144,1555458121637,1555458336844
3,rep3,sorter,1555458629698,1555458638264,1555458899550,42812716000,42807792756,42862881360,42790309992,85613875650,42797721446,176,40,0,0,16,4,158,2,16,1555458640569,1555458768476,1555458683639,1555458899490
2,ec-RS-6-3-1024k,sorter,1555456898902,1555456908674,1555457196913,44171028668,42807842696,42862607736,42790362915,85613981496,42797774369,176,38,0,0,16,2,158,2,16,1555456910998,1555457010060,1555456979777,1555457196819
2,rep3,sorter,1555457470234,1555457479079,1555457740450,42812716000,42807792756,42862881360,42790309992,85613875650,42797721446,176,39,0,0,16,3,159,1,16,1555457481398,1555457577103,1555457525934,1555457740390
