run_id,job_name,policy,datasize,failure_type,failure_stage,nb_failures,killed_hosts,time_before_f,time_after_f,nb_live_dns,nb_live_workers
0,sorter,ec-RS-6-3-1024k,40,map,50,1,econome-18,1554600053.32,1554600054.49,20,19
0,sorter,rep3,40,map,50,1,econome-8,1554600450.55,1554600452.08,20,19
0,word-count,ec-RS-6-3-1024k,40,map,50,1,econome-9,1554600890.39,1554600892.37,20,19
0,word-count,rep3,40,map,50,1,econome-2,1554601277.0,1554601279.51,20,19
1,sorter,ec-RS-6-3-1024k,40,map,50,1,econome-2,1554601683.85,1554601685.18,20,19
1,sorter,rep3,40,map,50,1,econome-6,1554602083.04,1554602084.87,20,19
1,word-count,ec-RS-6-3-1024k,40,map,50,1,econome-21,1554602517.16,1554602518.54,20,19
1,word-count,rep3,40,map,50,1,econome-21,1554602906.59,1554602908.47,20,19
2,sorter,ec-RS-6-3-1024k,40,map,50,1,econome-21,1554603314.63,1554603316.33,20,19
2,sorter,rep3,40,map,50,1,econome-6,1554603712.37,1554603714.42,20,19
2,word-count,ec-RS-6-3-1024k,40,map,50,1,econome-20,1554604142.81,1554604144.59,20,19
2,word-count,rep3,40,map,50,1,econome-8,1554604528.61,1554604530.77,20,19
3,sorter,ec-RS-6-3-1024k,40,map,50,1,econome-3,1554604939.6,1554604940.88,20,19
3,sorter,rep3,40,map,50,1,econome-14,1554605336.09,1554605338.35,20,19
3,word-count,ec-RS-6-3-1024k,40,map,50,1,econome-13,1554605772.98,1554605774.56,20,19
3,word-count,rep3,40,map,50,1,econome-17,1554606157.72,1554606159.81,20,19
4,sorter,ec-RS-6-3-1024k,40,map,50,1,econome-21,1554606571.34,1554606573.02,20,19
4,sorter,rep3,40,map,50,1,econome-20,1554606959.03,1554606960.88,20,19
4,word-count,ec-RS-6-3-1024k,40,map,50,1,econome-2,1554607386.35,1554607388.24,20,19
4,word-count,rep3,40,map,50,1,econome-20,1554607774.1,1554607775.88,20,19
5,sorter,ec-RS-6-3-1024k,40,map,50,1,econome-3,1554608184.12,1554608185.45,20,19
5,sorter,rep3,40,map,50,1,econome-18,1554608573.55,1554608575.41,20,19
5,word-count,ec-RS-6-3-1024k,40,map,50,1,econome-18,1554609018.26,1554609019.75,20,19
5,word-count,rep3,40,map,50,1,econome-21,1554609408.63,1554609410.63,20,19
6,sorter,ec-RS-6-3-1024k,40,map,50,1,econome-22,1554609824.33,1554609825.81,20,19
6,sorter,rep3,40,map,50,1,econome-13,1554610214.65,1554610223.32,20,19
6,word-count,ec-RS-6-3-1024k,40,map,50,1,econome-13,1554610661.43,1554610662.61,20,19
6,word-count,rep3,40,map,50,1,econome-16,1554611049.98,1554611051.77,20,19
7,sorter,ec-RS-6-3-1024k,40,map,50,1,econome-13,1554611444.27,1554611446.53,20,19
7,sorter,rep3,40,map,50,1,econome-2,1554611845.85,1554611848.4,20,19
7,word-count,ec-RS-6-3-1024k,40,map,50,1,econome-6,1554612294.89,1554612296.37,20,19
7,word-count,rep3,40,map,50,1,econome-20,1554612682.95,1554612684.79,20,19
8,sorter,ec-RS-6-3-1024k,40,map,50,1,econome-13,1554613093.2,1554613094.78,20,19
8,sorter,rep3,40,map,50,1,econome-21,1554613482.74,1554613484.58,20,19
8,word-count,ec-RS-6-3-1024k,40,map,50,1,econome-9,1554613923.44,1554613925.08,20,19
8,word-count,rep3,40,map,50,1,econome-15,1554614309.11,1554614310.9,20,19
9,sorter,ec-RS-6-3-1024k,40,map,50,1,econome-18,1554614716.8,1554614718.24,20,19
9,sorter,rep3,40,map,50,1,econome-9,1554615103.04,1554615105.08,20,19
9,word-count,ec-RS-6-3-1024k,40,map,50,1,econome-2,1554615552.36,1554615553.69,20,19
9,word-count,rep3,40,map,50,1,econome-13,1554615941.26,1554615943.68,20,19
