run_id,job_name,policy,datasize,host,lb_before_1,lb_before_2,lb_after_1,lb_after_2
0,sorter,ec-RS-6-3-1024k,40,econome-11,4485028,4485108,7813176,7813176
0,sorter,ec-RS-6-3-1024k,40,econome-12,3338400,3338392,5879020,5879020
0,sorter,ec-RS-6-3-1024k,40,econome-13,3426508,3426260,6759976,6759976
0,sorter,ec-RS-6-3-1024k,40,econome-14,2285796,2285796,2315360,2315360
0,sorter,ec-RS-6-3-1024k,40,econome-15,2898816,2898780,6618688,6618688
0,sorter,ec-RS-6-3-1024k,40,econome-16,2109536,2109536,4639160,4639160
0,sorter,ec-RS-6-3-1024k,40,econome-17,2111244,2111244,5433932,5433932
0,sorter,ec-RS-6-3-1024k,40,econome-18,2283944,2283756,5215624,5215624
0,sorter,ec-RS-6-3-1024k,40,econome-19,264572,264572,4545812,4545812
0,sorter,ec-RS-6-3-1024k,40,econome-2,4125052,4125052,8233664,8233664
0,sorter,ec-RS-6-3-1024k,40,econome-20,3603128,3603128,6910360,6910360
0,sorter,ec-RS-6-3-1024k,40,econome-21,4217688,4217688,7925912,7925912
0,sorter,ec-RS-6-3-1024k,40,econome-22,3599844,3599844,6736324,6736324
0,sorter,ec-RS-6-3-1024k,40,econome-3,3164256,3164000,5912656,5912656
0,sorter,ec-RS-6-3-1024k,40,econome-4,3954576,3954336,6874088,6874088
0,sorter,ec-RS-6-3-1024k,40,econome-5,2900216,2900216,5644712,5644712
0,sorter,ec-RS-6-3-1024k,40,econome-6,4483616,4483616,8972332,8972332
0,sorter,ec-RS-6-3-1024k,40,econome-7,3339996,3339996,6450396,6450396
0,sorter,ec-RS-6-3-1024k,40,econome-8,3339104,3339104,7244700,7244700
0,sorter,ec-RS-6-3-1024k,40,econome-9,3338224,3338224,5866996,5866996
0,sorter,rep3,40,econome-11,5523944,5524032,11655784,11655784
0,sorter,rep3,40,econome-12,6323780,6323736,11683616,11683616
0,sorter,rep3,40,econome-13,6844740,6844952,15963868,15963868
0,sorter,rep3,40,econome-14,7115972,7116000,14994424,14994424
0,sorter,rep3,40,econome-15,6585112,6585136,6585480,6585480
0,sorter,rep3,40,econome-16,6845080,6845332,14343000,14343000
0,sorter,rep3,40,econome-17,6313080,6313068,12192692,12192692
0,sorter,rep3,40,econome-18,6851720,6851812,13239448,13239448
0,sorter,rep3,40,econome-19,6584036,6584748,13597100,13597100
0,sorter,rep3,40,econome-2,5530748,5530864,12038652,12038652
0,sorter,rep3,40,econome-20,5530728,5530876,12087664,12087664
0,sorter,rep3,40,econome-21,4999348,4999380,12331324,12331324
0,sorter,rep3,40,econome-22,5005860,5006048,12616220,12616220
0,sorter,rep3,40,econome-3,7108928,7109068,13431252,13431252
0,sorter,rep3,40,econome-4,6591000,6591352,13379220,13379220
0,sorter,rep3,40,econome-5,7627204,7627080,15757668,15757668
0,sorter,rep3,40,econome-6,4741676,4742284,9778448,9778448
0,sorter,rep3,40,econome-7,6316868,6316444,10749000,10749000
0,sorter,rep3,40,econome-8,6858728,6858968,13569744,13569744
0,sorter,rep3,40,econome-9,7102192,7102256,12849360,12849360
1,sorter,ec-RS-6-3-1024k,40,econome-11,2021104,2020884,5340228,5340228
1,sorter,ec-RS-6-3-1024k,40,econome-12,3164900,3164836,6087476,6087476
1,sorter,ec-RS-6-3-1024k,40,econome-13,3691280,3691280,6605620,6605620
1,sorter,ec-RS-6-3-1024k,40,econome-14,3427164,3427112,6745252,6745252
1,sorter,ec-RS-6-3-1024k,40,econome-15,3074548,3074548,7183236,7183236
1,sorter,ec-RS-6-3-1024k,40,econome-16,2899848,2899840,6422276,6422276
1,sorter,ec-RS-6-3-1024k,40,econome-17,3604180,3604268,7913264,7913264
1,sorter,ec-RS-6-3-1024k,40,econome-18,4657072,4657160,4776264,4776264
1,sorter,ec-RS-6-3-1024k,40,econome-19,3599740,3599740,6713856,6713856
1,sorter,ec-RS-6-3-1024k,40,econome-2,3425192,3425280,6957788,6957788
1,sorter,ec-RS-6-3-1024k,40,econome-20,2285672,2285672,5797460,5797460
1,sorter,ec-RS-6-3-1024k,40,econome-21,3428964,3428964,6157160,6157160
1,sorter,ec-RS-6-3-1024k,40,econome-22,3162160,3162160,7652700,7652700
1,sorter,ec-RS-6-3-1024k,40,econome-3,2286016,2286016,5405444,5405444
1,sorter,ec-RS-6-3-1024k,40,econome-4,2812128,2812128,5754180,5754180
1,sorter,ec-RS-6-3-1024k,40,econome-5,3604420,3604420,6329312,6329312
1,sorter,ec-RS-6-3-1024k,40,econome-6,3163860,3163860,6308680,6308680
1,sorter,ec-RS-6-3-1024k,40,econome-7,2374040,2374040,6081496,6081496
1,sorter,ec-RS-6-3-1024k,40,econome-8,3689348,3689348,6807352,6807352
1,sorter,ec-RS-6-3-1024k,40,econome-9,2897084,2897084,5637084,5637084
1,sorter,rep3,40,econome-11,5266544,5266684,11629660,11629660
1,sorter,rep3,40,econome-12,7637644,7637796,15275932,15275932
1,sorter,rep3,40,econome-13,6841300,6841464,12853768,12853768
1,sorter,rep3,40,econome-14,5270196,5270308,13187704,13187704
1,sorter,rep3,40,econome-15,8694320,8694328,15181840,15181840
1,sorter,rep3,40,econome-16,5534252,5534820,12603012,12603012
1,sorter,rep3,40,econome-17,6320216,6320304,12448724,12448724
1,sorter,rep3,40,econome-18,5263092,5263332,11867080,11867080
1,sorter,rep3,40,econome-19,8165760,8166012,14691636,14691636
1,sorter,rep3,40,econome-2,6319864,6319964,13016912,13016912
1,sorter,rep3,40,econome-20,5798732,5798640,10535184,10535184
1,sorter,rep3,40,econome-21,7898028,7898424,15277732,15277732
1,sorter,rep3,40,econome-22,4484624,4484560,10327644,10327644
1,sorter,rep3,40,econome-3,4995372,4995500,4996852,4996852
1,sorter,rep3,40,econome-4,6327128,6327024,12892376,12892376
1,sorter,rep3,40,econome-5,6306916,6307072,13551612,13551612
1,sorter,rep3,40,econome-6,6577320,6577416,13072436,13072436
1,sorter,rep3,40,econome-7,6844780,6844892,12687632,12687632
1,sorter,rep3,40,econome-8,6323684,6323860,13054448,13054448
1,sorter,rep3,40,econome-9,5530984,5531160,13692984,13692984
2,sorter,ec-RS-6-3-1024k,40,econome-11,2638076,2638024,5968032,5968032
2,sorter,ec-RS-6-3-1024k,40,econome-12,2373452,2373408,5108900,5108900
2,sorter,ec-RS-6-3-1024k,40,econome-13,2108688,2108688,4637528,4637528
2,sorter,ec-RS-6-3-1024k,40,econome-14,703856,703852,1235564,1235564
2,sorter,ec-RS-6-3-1024k,40,econome-15,2902824,2902868,7393428,7393428
2,sorter,ec-RS-6-3-1024k,40,econome-16,3690252,3690252,6625288,6625288
2,sorter,ec-RS-6-3-1024k,40,econome-17,3605304,3605116,7497964,7497964
2,sorter,ec-RS-6-3-1024k,40,econome-18,3598612,3598612,7305704,7305704
2,sorter,ec-RS-6-3-1024k,40,econome-19,3075480,3075472,5424520,5424520
2,sorter,ec-RS-6-3-1024k,40,econome-2,4483564,4483528,8975156,8975156
2,sorter,ec-RS-6-3-1024k,40,econome-20,4216816,4216904,7324072,7324072
2,sorter,ec-RS-6-3-1024k,40,econome-21,2634964,2634964,6557712,6557712
2,sorter,ec-RS-6-3-1024k,40,econome-22,440432,440424,3386420,3386420
2,sorter,ec-RS-6-3-1024k,40,econome-3,3693088,3693052,7205432,7205432
2,sorter,ec-RS-6-3-1024k,40,econome-4,3427020,3427020,6161460,6161460
2,sorter,ec-RS-6-3-1024k,40,econome-5,3426248,3426248,6551900,6551900
2,sorter,ec-RS-6-3-1024k,40,econome-6,3864712,3864712,6400588,6400588
2,sorter,ec-RS-6-3-1024k,40,econome-7,4130988,4130988,8426256,8426256
2,sorter,ec-RS-6-3-1024k,40,econome-8,4654856,4654856,7390684,7390684
2,sorter,ec-RS-6-3-1024k,40,econome-9,3599604,3599604,6917712,6917712
2,sorter,rep3,40,econome-11,7108940,7109088,14871496,14871496
2,sorter,rep3,40,econome-12,6841256,6841340,11258168,11258168
2,sorter,rep3,40,econome-13,7898240,7898336,15247832,15247832
2,sorter,rep3,40,econome-14,6317416,6317472,13088608,13088608
2,sorter,rep3,40,econome-15,6059132,6059340,11151928,11151928
2,sorter,rep3,40,econome-16,6844744,6844956,12834632,12834632
2,sorter,rep3,40,econome-17,6309540,6309520,13148432,13148432
2,sorter,rep3,40,econome-18,8151796,8151920,14618816,14618816
2,sorter,rep3,40,econome-19,5801936,5802064,11465828,11465828
2,sorter,rep3,40,econome-2,7644296,7644696,12974328,12974328
2,sorter,rep3,40,econome-20,5270556,5270668,11537900,11537900
2,sorter,rep3,40,econome-21,4745332,4745276,11515328,11515328
2,sorter,rep3,40,econome-22,8169264,8169432,15389288,15389288
2,sorter,rep3,40,econome-3,3949808,3949824,3949824,3949824
2,sorter,rep3,40,econome-4,5005888,5006372,11854280,11854280
2,sorter,rep3,40,econome-5,3952564,3952940,10031100,10031100
2,sorter,rep3,40,econome-6,7880600,7880688,16139172,16139172
2,sorter,rep3,40,econome-7,8176224,8176788,15305440,15305440
2,sorter,rep3,40,econome-8,4474476,4474228,12900848,12900848
2,sorter,rep3,40,econome-9,5798724,5798580,13560836,13560836
3,sorter,ec-RS-6-3-1024k,40,econome-11,2897960,2897960,5226084,5226084
3,sorter,ec-RS-6-3-1024k,40,econome-12,3603352,3603352,6742788,6742788
3,sorter,ec-RS-6-3-1024k,40,econome-13,5187424,5187244,8908220,8908220
3,sorter,ec-RS-6-3-1024k,40,econome-14,2900904,2900896,5239412,5239412
3,sorter,ec-RS-6-3-1024k,40,econome-15,264952,264916,3793360,3793360
3,sorter,ec-RS-6-3-1024k,40,econome-16,704668,704448,3440148,3440148
3,sorter,ec-RS-6-3-1024k,40,econome-17,4130136,4130136,9020660,9020660
3,sorter,ec-RS-6-3-1024k,40,econome-18,2900788,2900788,7388988,7388988
3,sorter,ec-RS-6-3-1024k,40,econome-19,3336184,3336184,6250352,6250352
3,sorter,ec-RS-6-3-1024k,40,econome-2,3690412,3690412,6227880,6227880
3,sorter,ec-RS-6-3-1024k,40,econome-20,3424448,3424272,7126556,7126556
3,sorter,ec-RS-6-3-1024k,40,econome-21,3427192,3427120,3496720,3496720
3,sorter,ec-RS-6-3-1024k,40,econome-22,3426380,3426380,7718892,7718892
3,sorter,ec-RS-6-3-1024k,40,econome-3,3603488,3603424,6935224,6935224
3,sorter,ec-RS-6-3-1024k,40,econome-4,2811572,2811528,5755500,5755500
3,sorter,ec-RS-6-3-1024k,40,econome-5,3866616,3866616,6410464,6410464
3,sorter,ec-RS-6-3-1024k,40,econome-6,3953528,3953528,7855420,7855420
3,sorter,ec-RS-6-3-1024k,40,econome-7,2108608,2108388,4842528,4842528
3,sorter,ec-RS-6-3-1024k,40,econome-8,4218628,4218628,7931452,7931452
3,sorter,ec-RS-6-3-1024k,40,econome-9,2812464,2812464,6121596,6121596
3,sorter,rep3,40,econome-11,5523940,5524428,12810076,12810076
3,sorter,rep3,40,econome-12,6841572,6841472,13375312,13375312
3,sorter,rep3,40,econome-13,7380120,7380272,13121712,13121712
3,sorter,rep3,40,econome-14,5791660,5791600,12476496,12476496
3,sorter,rep3,40,econome-15,6319864,6320056,15114744,15114744
3,sorter,rep3,40,econome-16,6851924,6852060,14510436,14510436
3,sorter,rep3,40,econome-17,5256492,5256616,13099136,13099136
3,sorter,rep3,40,econome-18,8155260,8155352,15738040,15738040
3,sorter,rep3,40,econome-19,6319880,6320056,12780572,12780572
3,sorter,rep3,40,econome-2,5009324,5009384,10675608,10675608
3,sorter,rep3,40,econome-20,7109284,7109460,15605384,15605384
3,sorter,rep3,40,econome-21,7113500,7113620,12885216,12885216
3,sorter,rep3,40,econome-22,6577096,6577340,13039212,13039212
3,sorter,rep3,40,econome-3,7376872,7377040,7377040,7377040
3,sorter,rep3,40,econome-4,6580584,6580692,12034860,12034860
3,sorter,rep3,40,econome-5,6059120,6059336,11774084,11774084
3,sorter,rep3,40,econome-6,4216772,4216940,10506800,10506800
3,sorter,rep3,40,econome-7,5527876,5527716,10613036,10613036
3,sorter,rep3,40,econome-8,5534216,5534440,12284588,12284588
3,sorter,rep3,40,econome-9,6855408,6855688,13021480,13021480
4,sorter,ec-RS-6-3-1024k,40,econome-11,3426092,3426092,6546464,6546464
4,sorter,ec-RS-6-3-1024k,40,econome-12,3864976,3864932,7403056,7403056
4,sorter,ec-RS-6-3-1024k,40,econome-13,440848,440660,3754284,3754284
4,sorter,ec-RS-6-3-1024k,40,econome-14,3689396,3689396,6820108,6820108
4,sorter,ec-RS-6-3-1024k,40,econome-15,3426300,3426380,6949916,6949916
4,sorter,ec-RS-6-3-1024k,40,econome-16,3075356,3075312,5797648,5797648
4,sorter,ec-RS-6-3-1024k,40,econome-17,3076848,3076812,6590752,6590752
4,sorter,ec-RS-6-3-1024k,40,econome-18,2636780,2636780,4978020,4978020
4,sorter,ec-RS-6-3-1024k,40,econome-19,3341288,3341288,5296992,5296992
4,sorter,ec-RS-6-3-1024k,40,econome-2,3076148,3076148,6591280,6591280
4,sorter,ec-RS-6-3-1024k,40,econome-20,3689636,3689636,7983856,7983856
4,sorter,ec-RS-6-3-1024k,40,econome-21,3076160,3076160,3077680,3077680
4,sorter,ec-RS-6-3-1024k,40,econome-22,3955408,3955408,7664752,7664752
4,sorter,ec-RS-6-3-1024k,40,econome-3,3955980,3955980,8254788,8254788
4,sorter,ec-RS-6-3-1024k,40,econome-4,4129920,4129856,7642176,7642176
4,sorter,ec-RS-6-3-1024k,40,econome-5,264568,264656,4365000,4365000
4,sorter,ec-RS-6-3-1024k,40,econome-6,2896936,2896936,5646708,5646708
4,sorter,ec-RS-6-3-1024k,40,econome-7,4214612,4214612,7536324,7536324
4,sorter,ec-RS-6-3-1024k,40,econome-8,2900224,2900224,5430484,5430484
4,sorter,ec-RS-6-3-1024k,40,econome-9,4131432,4131432,7832944,7832944
4,sorter,rep3,40,econome-11,8958716,8959116,13899668,13899668
4,sorter,rep3,40,econome-12,5002588,5002632,12071612,12071612
4,sorter,rep3,40,econome-13,5002860,5002556,11405736,11405736
4,sorter,rep3,40,econome-14,4216760,4216876,10514448,10514448
4,sorter,rep3,40,econome-15,5784516,5784684,12137172,12137172
4,sorter,rep3,40,econome-16,6841244,6841340,13221176,13221176
4,sorter,rep3,40,econome-17,3952576,3952816,12162332,12162332
4,sorter,rep3,40,econome-18,6330292,6330516,13808748,13808748
4,sorter,rep3,40,econome-19,7373664,7373788,7373816,7373816
4,sorter,rep3,40,econome-2,6580720,6580752,12865292,12865292
4,sorter,rep3,40,econome-20,9486728,9487232,15780368,15780368
4,sorter,rep3,40,econome-21,5534224,5534496,11517896,11517896
4,sorter,rep3,40,econome-22,7901740,7901876,14255368,14255368
4,sorter,rep3,40,econome-3,7623392,7623520,15935256,15935256
4,sorter,rep3,40,econome-4,4741948,4742168,10821416,10821416
4,sorter,rep3,40,econome-5,6059168,6059272,12961844,12961844
4,sorter,rep3,40,econome-6,5267592,5267588,10946528,10946528
4,sorter,rep3,40,econome-7,4735000,4734888,12414460,12414460
4,sorter,rep3,40,econome-8,7640820,7641032,13284632,13284632
4,sorter,rep3,40,econome-9,7366204,7366368,15465800,15465800
